{
    "aaData" : [
        { "id" : "1", "imagekomik" : "resources/images/komeng/main1/aquaman1.jpg", "namakomik" : "Aquaman" },
        { "id" : "2", "imagekomik" : "https://masterku.github.io/aqman/main2/darkxmen01.jpg", "namakomik" : "Dark X-Men" },
        { "id" : "3", "imagekomik" : "https://masterku.github.io/aqman/main3/xmenor01.jpg", "namakomik" : "X-Men Origins" }
    ]
}