{    "aaData" : [ { "id" : "1", "imagekomik" : "resources/images/main1/RajaBola1.jpg", "namakomik" : "Raja Bola", "level": "0" },
        { "id" : "2", "imagekomik" : "resources/images/main2/jm01.jpg", "namakomik" : "Jengking Merah", "level": "0" }, 
        { "id" : "3", "imagekomik" : "resources/images/main3/jw001.jpg", "namakomik" : "Juara Wira", "level": "0" },
        { "id" : "4", "imagekomik" : "resources/images/main4/jjk01.jpg", "namakomik" : "Juara-Juara Kembar 1", "level": "0" },
        { "id" : "5", "imagekomik" : "resources/images/main5/wk178.jpg", "namakomik" : "Juara-Juara Kembar 2: Wira Kembar", "level": "0" },
        { "id" : "6", "imagekomik" : "resources/images/main6/jj001.jpg", "namakomik" : "Juara Jalanan", "level": "0" },
        { "id" : "7", "imagekomik" : "resources/images/main7/JJII01.jpg", "namakomik" : "Juara Jalanan II", "level": "0" },
        { "id" : "8", "imagekomik" : "resources/images/main8/plg101.jpg", "namakomik" : "Pendekar Laut Gen I", "level": "0" },
        { "id" : "9", "imagekomik" : "resources/images/main9/plg201.jpg", "namakomik" : "Pendekar Laut Gen II", "level": "0" },
        { "id" : "10", "imagekomik" : "resources/images/main10/pg301.jpg", "namakomik" : "Pendekar Laut Gen III", "level": "0" },
        { "id" : "11", "imagekomik" : "resources/images/main11/ap01.jpg", "namakomik" : "Alam Perwira I", "level": "0" },
        { "id" : "12", "imagekomik" : "resources/images/main12/P_01.jpg", "namakomik" : "Street Fighter Zero II", "level": "0" },
        { "id" : "13", "imagekomik" : "resources/images/main13/VF01.jpg", "namakomik" : "Virus Fighter", "level": "0" },
        { "id" : "14", "imagekomik" : "resources/images/main14/PS01.jpg", "namakomik" : "Pedang Setiawan", "level": "0" },
        { "id" : "15", "imagekomik" : "resources/images/main15/RR01.jpg", "namakomik" : "Raja Rimba", "level": "0" },                
        { "id" : "16", "imagekomik" : "resources/images/main16/pltb01.jpg", "namakomik" : "Pendekar Laut The Beginning", "level": "0" },
        { "id" : "17", "imagekomik" : "resources/images/main17/QuenQon1.jpg", "namakomik" : "Wira Tunggal Tambahan: Wira Tempur Pendekar Laut Pai Quenqon", "level": "0" },
        { "id" : "18", "imagekomik" : "resources/images/main18/Feisha01.jpg", "namakomik" : "Wira Tunggal Tambahan: Feisha", "level": "0" },
        { "id" : "19", "imagekomik" : "resources/images/main19/wt001.jpg", "namakomik" : "Wira Tunggal 1", "level": "0" },
        { "id" : "20", "imagekomik" : "resources/images/main20/WT201.jpg", "namakomik" : "Wira Tunggal 2 Phoenix", "level": "0" },
        { "id" : "21", "imagekomik" : "resources/images/main21/WT301.jpg", "namakomik" : "Wira Tunggal 3 Infiniti", "level": "0" },
        { "id" : "22", "imagekomik" : "resources/images/main22/WT401.jpg", "namakomik" : "Wira Tunggal 4 Pendekar Laut", "level": "0" },
        { "id" : "23", "imagekomik" : "resources/images/main23/WT501.jpg", "namakomik" : "Wira Tunggal 5 Final", "level": "0" },                
        { "id" : "24", "imagekomik" : "resources/images/main24/dr001.jpg", "namakomik" : "Dewata Raya", "level": "0" },
        { "id" : "25", "imagekomik" : "resources/images/main25/HMQ01.jpg", "namakomik" : "Alam Perwira II Hikayat Maharaja Qin", "level": "0" },
        { "id" : "26", "imagekomik" : "resources/images/main26/MP01.jpg", "namakomik" : "Alam Perwira III Maharaja Petualang", "level": "0" },
        { "id" : "27", "imagekomik" : "resources/images/main27/NW01.jpg", "namakomik" : "Alam Perwira IV Naga Wira", "level": "0" },
        { "id" : "28", "imagekomik" : "resources/images/main28/rrp001.jpg", "namakomik" : "Alam Perwira V Raja-Raja Perwira", "level": "0" },
        { "id" : "29", "imagekomik" : "resources/images/main29/RRS01.jpg", "namakomik" : "Alam Perwira VI Raja Rembulan Sakti", "level": "0" },
        { "id" : "30", "imagekomik" : "resources/images/main30/pd01x.jpg", "namakomik" : "Alam Perwira VII Pembela Delapan", "level": "0" },
        { "id" : "31", "imagekomik" : "resources/images/main31/sh01.jpg", "namakomik" : "Satria Helang", "level": "0" },
        { "id" : "32", "imagekomik" : "resources/images/main32/tphs01.jpg", "namakomik" : "Teman Pendekar Helang Sakti", "level": "0" },
        { "id" : "33", "imagekomik" : "resources/images/main33/gk01.jpg", "namakomik" : "Golok Keramat", "level": "0" },
        { "id" : "34", "imagekomik" : "resources/images/main34/aaw01.jpg", "namakomik" : "Anak-Anak Wira", "level": "0" },
        { "id" : "35", "imagekomik" : "resources/images/main35/4pj01.jpg", "namakomik" : "4 Panglima Jagoan", "level": "0" },
        { "id" : "36", "imagekomik" : "resources/images/main36/jdr101.jpg", "namakomik" : "JDream I: Johan Bolasepak I", "level": "0" },
        { "id" : "37", "imagekomik" : "resources/images/main37/jdr201.jpg", "namakomik" : "JDream II: Johan Bolasepak II", "level": "0" },
        { "id" : "38", "imagekomik" : "https://masterku.github.io/bbx1/bbx01.jpg", "namakomik" : "Babarian X I", "level": "0" },
        { "id" : "39", "imagekomik" : "resources/images/main39/BBX201.jpg", "namakomik" : "Babarian X II", "level": "0" },
        { "id" : "40", "imagekomik" : "resources/images/main40/MPM01.jpg", "namakomik" : "Mahaputera Merak", "level": "0" },
        { "id" : "41", "imagekomik" : "resources/images/main41/bl01.jpg", "namakomik" : "Blade", "level": "0" },
        { "id" : "42", "imagekomik" : "resources/images/main42/wtppm.jpg", "namakomik" : "Wira Tunggal Tambahan: Pra Pertarungan Muktamad", "level": "0" },
        { "id" : "43", "imagekomik" : "resources/images/main43/wtkts.jpg", "namakomik" : "Wira Tunggal Tambahan: Kisah Tok Sing", "level": "0" },
        { "id" : "44", "imagekomik" : "resources/images/main44/wthope.jpg", "namakomik" : "Wira Tunggal Tambahan: Hope", "level": "0" },
        { "id" : "45", "imagekomik" : "resources/images/main45/wtph.jpg", "namakomik" : "Wira Tunggal Tambahan: Petir Hitam", "level": "0" },
        { "id" : "46", "imagekomik" : "resources/images/main46/AD01.jpg", "namakomik" : "Alam Dewata", "level": "0" },
        { "id" : "47", "imagekomik" : "resources/images/main47/hwph01.jpg", "namakomik" : "Hikayat Wira Penembak Helang", "level": "0" },
        { "id" : "48", "imagekomik" : "resources/images/main48/PLG2501.jpg", "namakomik" : "Pendekar Laut Gen 2.5", "level": "0" },
        { "id" : "49", "imagekomik" : "resources/images/main49/sl00.jpg", "namakomik" : "Saint Legend", "level": "0" },
        { "id" : "50", "imagekomik" : "resources/images/main50/asoka.jpg", "namakomik" : "Wira Tunggal Tambahan: Asoka Emas", "level": "0" },
        { "id" : "51", "imagekomik" : "resources/images/main51/psakti01.jpg", "namakomik" : "Pendekar Sakti I - Remake", "level": "0" },
        { "id" : "52", "imagekomik" : "resources/images/main52/wtpm.jpg", "namakomik" : "Wira Tunggal Tambahan: Pedang Maharaja", "level": "0" },
        { "id" : "53", "imagekomik" : "resources/images/main53/js001.jpg", "namakomik" : "Jaguh Sakti", "level": "0" },
        { "id" : "54", "imagekomik" : "resources/images/main54/bhazard01.jpg", "namakomik" : "Biohazard 3 Last Escape", "level": "0" },
        { "id" : "55", "imagekomik" : "resources/images/main55/uk01.jpg", "namakomik" : "Ultimate Killer", "level": "0" },
        { "id" : "56", "imagekomik" : "resources/images/main56/BM01.jpg", "namakomik" : "Bintang Malang", "level": "0" },
        { "id" : "57", "imagekomik" : "resources/images/main57/BM01.jpg", "namakomik" : "Black Martial", "level": "0" },
        { "id" : "58", "imagekomik" : "resources/images/main58/HAS01.jpg", "namakomik" : "Hero And Samurai", "level": "0" },
        { "id" : "59", "imagekomik" : "resources/images/main59/JN01.jpg", "namakomik" : "Juara Naga", "level": "0" },
        { "id" : "60", "imagekomik" : "resources/images/main60/KB01.jpg", "namakomik" : "Kickboxer", "level": "0" },
        { "id" : "61", "imagekomik" : "resources/images/main61/LS01.jpg", "namakomik" : "Love Story", "level": "0" },
        { "id" : "62", "imagekomik" : "resources/images/main62/MK01.jpg", "namakomik" : "Monkey King", "level": "0" },
        { "id" : "63", "imagekomik" : "resources/images/main63/PJ01.jpg", "namakomik" : "Penjaring", "level": "0" },
        { "id" : "64", "imagekomik" : "resources/images/main64/SMCSEK01.jpg", "namakomik" : "Senjata Misteri Cereka Sains Era Khayalan", "level": "0" },
        { "id" : "65", "imagekomik" : "resources/images/main65/ArenaP01.jpg", "namakomik" : "Arena Perwira - Pendekar Hina Kelana", "level": "0" },
        { "id" : "66", "imagekomik" : "resources/images/main66/SR01.jpg", "namakomik" : "Street Racing", "level": "0" },
        { "id" : "67", "imagekomik" : "resources/images/main67/GS01.jpg", "namakomik" : "Galasakti", "level": "0" },
        { "id" : "68", "imagekomik" : "resources/images/main68/ws01.jpg", "namakomik" : "Wisely Z", "level": "0" },
        { "id" : "69", "imagekomik" : "resources/images/main69/ASakti01.jpg", "namakomik" : "Arjuna Sakti", "level": "0" },
        { "id" : "70", "imagekomik" : "resources/images/main70/EP01.jpg", "namakomik" : "Era Perwira I", "level": "0" },
        { "id" : "71", "imagekomik" : "resources/images/main71/EP201.jpg", "namakomik" : "Era Perwira II", "level": "0" },
        { "id" : "72", "imagekomik" : "resources/images/main72/01.jpg", "namakomik" : "Zaman Perbalahan", "level": "0" },
        { "id" : "73", "imagekomik" : "resources/images/main73/ss01.jpg", "namakomik" : "Saga Senjata", "level": "0" },
        { "id" : "74", "imagekomik" : "resources/images/main74/JM01.jpg", "namakomik" : "Jengking Mania", "level": "0" },
        { "id" : "75", "imagekomik" : "resources/images/main75/MG01.jpg", "namakomik" : "Mutant Genesis", "level": "0" },
        { "id" : "76", "imagekomik" : "resources/images/main76/PL01.jpg", "namakomik" : "Pendekar Lagenda", "level": "0" },
        { "id" : "77", "imagekomik" : "resources/images/main77/rajaj01.jpg", "namakomik" : "Raja Jengking", "level": "0" },
        { "id" : "78", "imagekomik" : "resources/images/main78/ip01.jpg", "namakomik" : "Legenda Ip Man", "level": "0" },
        { "id" : "79", "imagekomik" : "resources/images/main79/wp01.jpg", "namakomik" : "Wira Petualang", "level": "0" },
        { "id" : "80", "imagekomik" : "resources/images/main80/wn01.jpg", "namakomik" : "Wira Neraka", "level": "0" },
		{ "id" : "81", "imagekomik" : "resources/images/main81/lrp01.jpg", "namakomik" : "Lagenda Raksasa Puaka I", "level": "0" },
		{ "id" : "82", "imagekomik" : "resources/images/main82/lrpek.jpg", "namakomik" : "Lagenda Raksasa Puaka II Edisi Khas", "level": "0" },
		{ "id" : "83", "imagekomik" : "resources/images/main83/lrp200.jpg", "namakomik" : "Lagenda Raksasa Puaka II", "level": "0" },
		{ "id" : "84", "imagekomik" : "resources/images/main84/lrp301.jpg", "namakomik" : "Lagenda Raksasa Puaka III", "level": "0" },
        { "id" : "85", "imagekomik" : "resources/images/main85/mnep001.jpg", "namakomik" : "Mutiara Naga", "level": "0" },
        { "id" : "86", "imagekomik" : "resources/images/main86/rw01.jpg", "namakomik" : "Raja Wira", "level": "0" },
        { "id" : "87", "imagekomik" : "resources/images/main87/cs01.jpg", "namakomik" : "Cakar Sakti", "level": "0" },
        { "id" : "88", "imagekomik" : "resources/images/main88/tekk01.jpg", "namakomik" : "Tekken 3", "level": "0" },
        { "id" : "89", "imagekomik" : "resources/images/main89/cvs01.jpg", "namakomik" : "Capcom vs SNK", "level": "0" },
        { "id" : "90", "imagekomik" : "resources/images/main90/tec01.jpg", "namakomik" : "The Ex-Code", "level": "0" },
        { "id" : "91", "imagekomik" : "resources/images/main91/wrnjs01.jpg", "namakomik" : "Wirawan Jaguh Sakti", "level": "0" },
        { "id" : "92", "imagekomik" : "resources/images/main92/rt01.jpg", "namakomik" : "Wirawan Ribut Taufan", "level": "0" },
        { "id" : "93", "imagekomik" : "https://masterku.github.io/ds/ds001.jpg", "namakomik" : "Dewa Suria", "level": "0" },
        { "id" : "94", "imagekomik" : "resources/images/main94/df01.jpg", "namakomik" : "Dragon Force", "level": "0" },
        { "id" : "95", "imagekomik" : "resources/images/main95/pend01.jpg", "namakomik" : "Pendekar I", "level": "0" },
        { "id" : "96", "imagekomik" : "resources/images/main96/rico01.jpg", "namakomik" : "Pendekar II Rico", "level": "0" },
        { "id" : "97", "imagekomik" : "resources/images/main97/harl01.jpg", "namakomik" : "Harimau Laut 001", "level": "0" },
        { "id" : "98", "imagekomik" : "resources/images/main98/dper001.jpg", "namakomik" : "Darah Perwira", "level": "0" },
        { "id" : "99", "imagekomik" : "resources/images/main99/jlam001.jpg", "namakomik" : "Jejak Wira Lama", "level": "0" },
        { "id" : "100", "imagekomik" : "resources/images/main100/lt01.jpg", "namakomik" : "Lingkaran Terkunci", "level": "0" },
        { "id" : "101", "imagekomik" : "resources/images/main101/wog01.jpg", "namakomik" : "Warriors Of Gu Long", "level": "0" },
        { "id" : "102", "imagekomik" : "resources/images/main102/wwt01.jpg", "namakomik" : "Wirawan Tunggal", "level": "0" },
        { "id" : "103", "imagekomik" : "resources/images/main103/pg101.jpg", "namakomik" : "Parang Gila I", "level": "0" },
        { "id" : "104", "imagekomik" : "https://masterku.github.io/sm1/sm1001.jpg", "namakomik" : "Senjata Misteri I", "level": "0" },
        { "id" : "105", "imagekomik" : "resources/images/main105/tking01.jpg", "namakomik" : "The King", "level": "0" },
        { "id" : "106", "imagekomik" : "resources/images/main106/pemy01.jpg", "namakomik" : "Public Enemy I", "level": "0" },
        { "id" : "107", "imagekomik" : "resources/images/main107/wwk01.jpg", "namakomik" : "Wira-Wira Keinderaan", "level": "0" },
        { "id" : "108", "imagekomik" : "resources/images/main108/emp01.jpg", "namakomik" : "Empayar", "level": "0" },
        { "id" : "109", "imagekomik" : "resources/images/main109/pemy201.jpg", "namakomik" : "Public Enemy II", "level": "0" },
        { "id" : "110", "imagekomik" : "resources/images/main110/psmisteri101.jpg", "namakomik" : "Pra Senjata Misteri I", "level": "0" },
        { "id" : "111", "imagekomik" : "https://masterku.github.io/sm2/SMII001.jpg", "namakomik" : "Senjata Misteri II", "level": "0" },
        { "id" : "112", "imagekomik" : "resources/images/main112/ff01.jpg", "namakomik" : "Free Fight", "level": "0" },
        { "id" : "113", "imagekomik" : "resources/images/main113/psmisteri201.jpg", "namakomik" : "Pra Senjata Misteri II", "level": "0" },
        { "id" : "114", "imagekomik" : "https://masterku.github.io/sm3/SMIII001.jpg", "namakomik" : "Senjata Misteri III", "level": "0" },
        { "id" : "115", "imagekomik" : "resources/images/main115/k3p01.jpg", "namakomik" : "Kisah 3 Perwira", "level": "0" },
        { "id" : "116", "imagekomik" : "resources/images/main116/gb101.jpg", "namakomik" : "Guruh Badai I", "level": "0" },
        { "id" : "117", "imagekomik" : "resources/images/main117/pt101.jpg", "namakomik" : "Petir Tunggal I", "level": "0" },
        { "id" : "118", "imagekomik" : "resources/images/main118/pl01.jpg", "namakomik" : "Pustaka Langit", "level": "0" },
        { "id" : "119", "imagekomik" : "resources/images/main119/svcchaos01.jpg", "namakomik" : "SNK vs Capcom Chaos", "level": "0" },
        { "id" : "120", "imagekomik" : "resources/images/main120/kofmi01.jpg", "namakomik" : "The King Of Fighters - Maximum Impact", "level": "0" },
        { "id" : "121", "imagekomik" : "resources/images/main121/drx01.jpg", "namakomik" : "Wirawan Dunia RX", "level": "0" },
        { "id" : "122", "imagekomik" : "resources/images/main122/pas01.jpg", "namakomik" : "Wirawan Perwira Alam Semesta", "level": "0" },
        { "id" : "123", "imagekomik" : "resources/images/main123/jwb001.jpg", "namakomik" : "Jejak Wira Versi Baru", "level": "0" },
        { "id" : "124", "imagekomik" : "resources/images/main124/ppd01.jpg", "namakomik" : "Pedang Pendekar Durjana", "level": "0" },
        { "id" : "125", "imagekomik" : "resources/images/main125/pw01.jpg", "namakomik" : "Pejuang Waja", "level": "0" },
        { "id" : "126", "imagekomik" : "resources/images/main126/ww.jpg", "namakomik" : "Wira Wah - A Man Called Hero", "level": "0" },
        { "id" : "127", "imagekomik" : "resources/images/main127/wtrb.jpg", "namakomik" : "Wira Tunggal Tambahan: Razor Back", "level": "0" },
        { "id" : "128", "imagekomik" : "resources/images/main128/ca01.jpg", "namakomik" : "Cinta Abadi", "level": "0" },
        { "id" : "129", "imagekomik" : "resources/images/main129/rk01.jpg", "namakomik" : "Raja kera", "level": "0" },
        { "id" : "130", "imagekomik" : "resources/images/main130/kg01.jpg", "namakomik" : "Kisah Gergasi", "level": "0" },
        { "id" : "131", "imagekomik" : "resources/images/main131/pt201.jpg", "namakomik" : "Petir Tunggal II", "level": "0" },
        { "id" : "132", "imagekomik" : "resources/images/main132/kofmillennium01.jpg", "namakomik" : "The King of Fighters 99 Millennium Battle", "level": "0" },
        { "id" : "133", "imagekomik" : "resources/images/main133/kof03v01.jpg", "namakomik" : "The King of Fighters 2003", "level": "0" },
        { "id" : "134", "imagekomik" : "resources/images/main134/kofxz01.jpg", "namakomik" : "The King Of Fighter 03 Xenon Zero", "level": "0" },
        { "id" : "135", "imagekomik" : "resources/images/main135/pgalaksi01.jpg", "namakomik" : "Perang Galaksi", "level": "0" },
        { "id" : "136", "imagekomik" : "resources/images/main136/kofes01.jpg", "namakomik" : "The King of Fighters Exclusive Series", "level": "0" },
        { "id" : "137", "imagekomik" : "resources/images/main137/mk01.jpg", "namakomik" : "Misteri Kembara", "level": "0" },
        { "id" : "138", "imagekomik" : "resources/images/main138/smlodon01.jpg", "namakomik" : "Smilodon", "level": "0" },
        { "id" : "139", "imagekomik" : "resources/images/main139/wns01.jpg", "namakomik" : "The King of Fighters 96[Wira Naga Sakti]", "level": "0" },
        { "id" : "140", "imagekomik" : "resources/images/main140/proman01.jpg", "namakomik" : "Pendekar Romantis", "level": "0" },
        { "id" : "141", "imagekomik" : "resources/images/main141/tskyw01.jpg", "namakomik" : "The Sky War", "level": "0" },
        { "id" : "142", "imagekomik" : "resources/images/main142/draja01.jpg", "namakomik" : "Dragon Raja", "level": "0" },
        { "id" : "143", "imagekomik" : "resources/images/main143/jj01.jpg", "namakomik" : "Jejak Jaguh", "level": "0" },
        { "id" : "144", "imagekomik" : "resources/images/main144/wgk01.jpg", "namakomik" : "Wira Golok", "level": "0" },
        { "id" : "145", "imagekomik" : "resources/images/main145/wsti01.jpg", "namakomik" : "Wira Sakti", "level": "0" },
        { "id" : "146", "imagekomik" : "resources/images/main146/mnagasuper01.jpg", "namakomik" : "Mutiara Naga Super", "level": "0" },
        { "id" : "147", "imagekomik" : "resources/images/main147/pjw101.jpg", "namakomik" : "Pra Jejak Wira Versi Baru 1 Dewata Awan Berapi", "level": "0" },
        { "id" : "148", "imagekomik" : "resources/images/main148/pjw201.jpg", "namakomik" : "Pra Jejak Wira Versi Baru 2 Wong Siu Long", "level": "0" },
        { "id" : "149", "imagekomik" : "resources/images/main149/pjw3001.jpg", "namakomik" : "Pra Jejak Wira Versi Baru 3 Legenda Dewata Awan Berapi", "level": "0" },
        { "id" : "150", "imagekomik" : "resources/images/main150/dk001.jpg", "namakomik" : "Dendam Kesumat", "level": "1" },
        { "id" : "151", "imagekomik" : "resources/images/main151/lsh01.jpg", "namakomik" : "Legenda Shan Hai", "level": "1" },
        { "id" : "152", "imagekomik" : "resources/images/main152/jttw01.jpg", "namakomik" : "Pengembaraan ke Barat", "level": "0" },
        { "id" : "153", "imagekomik" : "resources/images/main153/wt01.jpg", "namakomik" : "Wira Tunggal Tambahan: Generasi 108", "level": "0" },
        { "id" : "154", "imagekomik" : "resources/images/main154/fsj01.jpg", "namakomik" : "Feng Sheng Ji - Perjanjian Dewa", "level": "0" },
        { "id" : "155", "imagekomik" : "resources/images/main155/pg201.jpg", "namakomik" : "Parang Gila II", "level": "0" },
        { "id" : "156", "imagekomik" : "resources/images/main156/nt001.jpg", "namakomik" : "Nakhoda Terbilang", "level": "1" },
        { "id" : "157", "imagekomik" : "resources/images/main157/ffx01.jpg", "namakomik" : "F.F.X.", "level": "1" },
		{ "id" : "158", "imagekomik" : "resources/images/main158/jdr301.jpg", "namakomik" : "JDream III: Johan Bolasepak III", "level": "1" },
		{ "id" : "159", "imagekomik" : "resources/images/main159/t1301.jpg", "namakomik" : "Tornado 13", "level": "0" },
		{ "id" : "160", "imagekomik" : "https://masterku.github.io/mad/mad01.jpg", "namakomik" : "Misteri Alat Dewata", "level": "0" },
		{ "id" : "161", "imagekomik" : "https://masterku.github.io/feel100/feel01.jpg", "namakomik" : "Feel 100%", "level": "0" },
		{ "id" : "162", "imagekomik" : "https://masterku.github.io/wfl/wfl101.jpg", "namakomik" : "Wong Feng Lei I", "level": "0" },
		{ "id" : "163", "imagekomik" : "https://masterku.github.io/wfl/wfl201.jpg", "namakomik" : "Wong Feng Lei II", "level": "0" }
    ]
}