{
    "aaData": [
        {  "image": "https://masterku.github.io/wwk/main107/BSWWK03/cyclonmaster.blogspot.com01.jpg", "id": 1  },
        {  "image": "https://masterku.github.io/wwk/main107/BSWWK03/cyclonmaster.blogspot.com02.jpg", "id": 2  },
		{  "image": "https://masterku.github.io/wwk/main107/BSWWK03/cyclonmaster.blogspot.com03.jpg", "id": 3  },
		{  "image": "https://masterku.github.io/wwk/main107/BSWWK03/cyclonmaster.blogspot.com04.jpg", "id": 4  },
		{  "image": "https://masterku.github.io/wwk/main107/BSWWK03/cyclonmaster.blogspot.com05.jpg", "id": 5  },
		{  "image": "https://masterku.github.io/wwk/main107/BSWWK03/cyclonmaster.blogspot.com06.jpg", "id": 6  },
		{  "image": "https://masterku.github.io/wwk/main107/BSWWK03/cyclonmaster.blogspot.com07.jpg", "id": 7  },
		{  "image": "https://masterku.github.io/wwk/main107/BSWWK03/cyclonmaster.blogspot.com08.jpg", "id": 8  },
		{  "image": "https://masterku.github.io/wwk/main107/BSWWK03/cyclonmaster.blogspot.com09.jpg", "id": 9  },
		{  "image": "https://masterku.github.io/wwk/main107/BSWWK03/cyclonmaster.blogspot.com10.jpg", "id": 10  },
		{  "image": "https://masterku.github.io/wwk/main107/BSWWK03/cyclonmaster.blogspot.com11.jpg", "id": 11  },
		{  "image": "https://masterku.github.io/wwk/main107/BSWWK03/cyclonmaster.blogspot.com12.jpg", "id": 12  },
		{  "image": "https://masterku.github.io/wwk/main107/BSWWK03/cyclonmaster.blogspot.com13.jpg", "id": 13  },
		{  "image": "https://masterku.github.io/wwk/main107/BSWWK03/cyclonmaster.blogspot.com14.jpg", "id": 14  },
		{  "image": "https://masterku.github.io/wwk/main107/BSWWK03/cyclonmaster.blogspot.com15.jpg", "id": 15  },
		{  "image": "https://masterku.github.io/wwk/main107/BSWWK03/cyclonmaster.blogspot.com16.jpg", "id": 16  },
		{  "image": "https://masterku.github.io/wwk/main107/BSWWK03/cyclonmaster.blogspot.com17.jpg", "id": 17  },
		{  "image": "https://masterku.github.io/wwk/main107/BSWWK03/cyclonmaster.blogspot.com18.jpg", "id": 18  }
    ]
}