{
    "aaData": [
        { "komiktype": "manhua", "sub": "76", "id": "1", "image": "https://masterku.github.io/oneshort/PendekarLagenda/PL01.jpg", "nama": "Episod 01" },
        { "komiktype": "manhua", "sub": "76", "id": "2", "image": "https://masterku.github.io/oneshort/PendekarLagenda/PL02.jpg", "nama": "Episod 02" },
        { "komiktype": "manhua", "sub": "76", "id": "3", "image": "https://masterku.github.io/oneshort/PendekarLagenda/PL03.jpg", "nama": "Episod 03" },
        { "komiktype": "manhua", "sub": "76", "id": "4", "image": "https://masterku.github.io/oneshort/PendekarLagenda/PL04.jpg", "nama": "Episod 04" }      
    ]
}