{
    "aaData": [
        { "komiktype": "manhua", "sub": "84", "id": "1", "image": "https://masterku.github.io/lrp/lrp3/lrp301.jpg", "nama": "Episod 01" },
        { "komiktype": "manhua", "sub": "84", "id": "2", "image": "https://masterku.github.io/lrp/lrp3/lrp302.jpg", "nama": "Episod 02" },
        { "komiktype": "manhua", "sub": "84", "id": "3", "image": "https://masterku.github.io/lrp/lrp3/lrp303.jpg", "nama": "Episod 03" },
        { "komiktype": "manhua", "sub": "84", "id": "4", "image": "https://masterku.github.io/lrp/lrp3/lrp304.jpg", "nama": "Episod 04" },
        { "komiktype": "manhua", "sub": "84", "id": "5", "image": "https://masterku.github.io/lrp/lrp3/lrp305.jpg", "nama": "Episod 05" },
        { "komiktype": "manhua", "sub": "84", "id": "6", "image": "https://masterku.github.io/lrp/lrp3/lrp306.jpg", "nama": "Episod 06" },
        { "komiktype": "manhua", "sub": "84", "id": "7", "image": "https://masterku.github.io/lrp/lrp3/lrp307.jpg", "nama": "Episod 07" },
        { "komiktype": "manhua", "sub": "84", "id": "8", "image": "https://masterku.github.io/lrp/lrp3/lrp308.jpg", "nama": "Episod 08" },
        { "komiktype": "manhua", "sub": "84", "id": "9", "image": "https://masterku.github.io/lrp/lrp3/lrp309.jpg", "nama": "Episod 09" },
        { "komiktype": "manhua", "sub": "84", "id": "10", "image": "https://masterku.github.io/lrp/lrp3/lrp310.jpg", "nama": "Episod 10" },
        { "komiktype": "manhua", "sub": "84", "id": "11", "image": "https://masterku.github.io/lrp/lrp3/lrp311.jpg", "nama": "Episod 11" },
        { "komiktype": "manhua", "sub": "84", "id": "12", "image": "https://masterku.github.io/lrp/lrp3/lrp312.jpg", "nama": "Episod 12" },
        { "komiktype": "manhua", "sub": "84", "id": "13", "image": "https://masterku.github.io/lrp/lrp3/lrp313.jpg", "nama": "Episod 13" },
        { "komiktype": "manhua", "sub": "84", "id": "14", "image": "https://masterku.github.io/lrp/lrp3/lrp314.jpg", "nama": "Episod 14" },
        { "komiktype": "manhua", "sub": "84", "id": "15", "image": "https://masterku.github.io/lrp/lrp3/lrp315.jpg", "nama": "Episod 15" },
        { "komiktype": "manhua", "sub": "84", "id": "16", "image": "https://masterku.github.io/lrp/lrp3/lrp316.jpg", "nama": "Episod 16" },
        { "komiktype": "manhua", "sub": "84", "id": "17", "image": "https://masterku.github.io/lrp/lrp3/lrp317.jpg", "nama": "Episod 17" },
        { "komiktype": "manhua", "sub": "84", "id": "18", "image": "https://masterku.github.io/lrp/lrp3/lrp318.jpg", "nama": "Episod 18" },
        { "komiktype": "manhua", "sub": "84", "id": "19", "image": "https://masterku.github.io/lrp/lrp3/lrp319.jpg", "nama": "Episod 19" },
        { "komiktype": "manhua", "sub": "84", "id": "20", "image": "https://masterku.github.io/lrp/lrp3/lrp320.jpg", "nama": "Episod 20" },
        { "komiktype": "manhua", "sub": "84", "id": "21", "image": "https://masterku.github.io/lrp/lrp3/lrp321.jpg", "nama": "Episod 21" },
        { "komiktype": "manhua", "sub": "84", "id": "22", "image": "https://masterku.github.io/lrp/lrp3/lrp322.jpg", "nama": "Episod 22" },
        { "komiktype": "manhua", "sub": "84", "id": "23", "image": "https://masterku.github.io/lrp/lrp3/lrp323.jpg", "nama": "Episod 23" },
        { "komiktype": "manhua", "sub": "84", "id": "24", "image": "https://masterku.github.io/lrp/lrp3/lrp324.jpg", "nama": "Episod 24" },
        { "komiktype": "manhua", "sub": "84", "id": "25", "image": "https://masterku.github.io/lrp/lrp3/lrp325.jpg", "nama": "Episod 25" },
        { "komiktype": "manhua", "sub": "84", "id": "26", "image": "https://masterku.github.io/lrp/lrp3/lrp326.jpg", "nama": "Episod 26" },
        { "komiktype": "manhua", "sub": "84", "id": "27", "image": "https://masterku.github.io/lrp/lrp3/lrp327.jpg", "nama": "Episod 27" },
        { "komiktype": "manhua", "sub": "84", "id": "28", "image": "https://masterku.github.io/lrp/lrp3/lrp328.jpg", "nama": "Episod 28" },
        { "komiktype": "manhua", "sub": "84", "id": "29", "image": "https://masterku.github.io/lrp/lrp3/lrp329.jpg", "nama": "Episod 29" },
        { "komiktype": "manhua", "sub": "84", "id": "30", "image": "https://masterku.github.io/lrp/lrp3/lrp330.jpg", "nama": "Episod 30" },
        { "komiktype": "manhua", "sub": "84", "id": "31", "image": "https://masterku.github.io/lrp/lrp3/lrp331.jpg", "nama": "Episod 31" },
        { "komiktype": "manhua", "sub": "84", "id": "32", "image": "https://masterku.github.io/lrp/lrp3/lrp332.jpg", "nama": "Episod 32" },
        { "komiktype": "manhua", "sub": "84", "id": "33", "image": "https://masterku.github.io/lrp/lrp3/lrp333.jpg", "nama": "Episod 33" }
    ]
}