{
    "aaData": [
        { "komiktype": "manhua", "sub": "117", "id": "1", "image": "https://masterku.github.io/pt1/pt101.jpg", "nama": "Episod 01" },
        { "komiktype": "manhua", "sub": "117", "id": "2", "image": "https://masterku.github.io/pt1/pt102.jpg", "nama": "Episod 02" },
        { "komiktype": "manhua", "sub": "117", "id": "3", "image": "https://masterku.github.io/pt1/pt103.jpg", "nama": "Episod 03" },
        { "komiktype": "manhua", "sub": "117", "id": "4", "image": "https://masterku.github.io/pt1/pt104.jpg", "nama": "Episod 04" },
        { "komiktype": "manhua", "sub": "117", "id": "5", "image": "https://masterku.github.io/pt1/pt105.jpg", "nama": "Episod 05" },
        { "komiktype": "manhua", "sub": "117", "id": "6", "image": "https://masterku.github.io/pt1/pt106.jpg", "nama": "Episod 06" },
        { "komiktype": "manhua", "sub": "117", "id": "7", "image": "https://masterku.github.io/pt1/pt107.jpg", "nama": "Episod 07" },
        { "komiktype": "manhua", "sub": "117", "id": "8", "image": "https://masterku.github.io/pt1/pt108.jpg", "nama": "Episod 08" }
    ]
}