{
    "aaData": [
        { "komiktype": "manhua", "sub": "100", "id": "1", "image": "https://masterku.github.io/lkun/lt01.jpg", "nama": "Episod 01" },
        { "komiktype": "manhua", "sub": "100", "id": "2", "image": "https://masterku.github.io/lkun/lt02.jpg", "nama": "Episod 02" },
        { "komiktype": "manhua", "sub": "100", "id": "3", "image": "https://masterku.github.io/lkun/lt03.jpg", "nama": "Episod 03" },
        { "komiktype": "manhua", "sub": "100", "id": "4", "image": "https://masterku.github.io/lkun/lt04.jpg", "nama": "Episod 04" },
		{ "komiktype": "manhua", "sub": "100", "id": "5", "image": "https://masterku.github.io/lkun/lt05.jpg", "nama": "Episod 05" },
        { "komiktype": "manhua", "sub": "100", "id": "6", "image": "https://masterku.github.io/lkun/lt06.jpg", "nama": "Episod 06" },
        { "komiktype": "manhua", "sub": "100", "id": "7", "image": "https://masterku.github.io/lkun/lt07.jpg", "nama": "Episod 07" },
        { "komiktype": "manhua", "sub": "100", "id": "8", "image": "https://masterku.github.io/lkun/lt08.jpg", "nama": "Episod 08" },
        { "komiktype": "manhua", "sub": "100", "id": "9", "image": "https://masterku.github.io/lkun/lt09.jpg", "nama": "Episod 09" },
		{ "komiktype": "manhua", "sub": "100", "id": "10", "image": "https://masterku.github.io/lkun/lt10.jpg", "nama": "Episod 10" },
        { "komiktype": "manhua", "sub": "100", "id": "11", "image": "https://masterku.github.io/lkun/lt11.jpg", "nama": "Episod 11" },
        { "komiktype": "manhua", "sub": "100", "id": "12", "image": "https://masterku.github.io/lkun/lt12.jpg", "nama": "Episod 12" },
        { "komiktype": "manhua", "sub": "100", "id": "13", "image": "https://masterku.github.io/lkun/lt13.jpg", "nama": "Episod 13" },
        { "komiktype": "manhua", "sub": "100", "id": "14", "image": "https://masterku.github.io/lkun/lt14.jpg", "nama": "Episod 14" },
		{ "komiktype": "manhua", "sub": "100", "id": "15", "image": "https://masterku.github.io/lkun/lt15.jpg", "nama": "Episod 15" },
        { "komiktype": "manhua", "sub": "100", "id": "16", "image": "https://masterku.github.io/lkun/lt16.jpg", "nama": "Episod 16" },
        { "komiktype": "manhua", "sub": "100", "id": "17", "image": "https://masterku.github.io/lkun/lt17.jpg", "nama": "Episod 17" },
        { "komiktype": "manhua", "sub": "100", "id": "18", "image": "https://masterku.github.io/lkun/lt18.jpg", "nama": "Episod 18" },
        { "komiktype": "manhua", "sub": "100", "id": "19", "image": "https://masterku.github.io/lkun/lt19.jpg", "nama": "Episod 19" },
		{ "komiktype": "manhua", "sub": "100", "id": "20", "image": "https://masterku.github.io/lkun/lt20.jpg", "nama": "Episod 20" },
        { "komiktype": "manhua", "sub": "100", "id": "21", "image": "https://masterku.github.io/lkun/lt21.jpg", "nama": "Episod 21" },
        { "komiktype": "manhua", "sub": "100", "id": "22", "image": "https://masterku.github.io/lkun/lt22.jpg", "nama": "Episod 22" },
        { "komiktype": "manhua", "sub": "100", "id": "23", "image": "https://masterku.github.io/lkun/lt23.jpg", "nama": "Episod 23" },
        { "komiktype": "manhua", "sub": "100", "id": "24", "image": "https://masterku.github.io/lkun/lt24.jpg", "nama": "Episod 24" },
		{ "komiktype": "manhua", "sub": "100", "id": "25", "image": "https://masterku.github.io/lkun/lt25.jpg", "nama": "Episod 25" },
        { "komiktype": "manhua", "sub": "100", "id": "26", "image": "https://masterku.github.io/lkun/lt26.jpg", "nama": "Episod 26" },
        { "komiktype": "manhua", "sub": "100", "id": "27", "image": "https://masterku.github.io/lkun/lt27.jpg", "nama": "Episod 27" },
        { "komiktype": "manhua", "sub": "100", "id": "28", "image": "https://masterku.github.io/lkun/lt28.jpg", "nama": "Episod 28" },
        { "komiktype": "manhua", "sub": "100", "id": "29", "image": "https://masterku.github.io/lkun/lt29.jpg", "nama": "Episod 29" },
		{ "komiktype": "manhua", "sub": "100", "id": "30", "image": "https://masterku.github.io/lkun/lt30.jpg", "nama": "Episod 30" },
        { "komiktype": "manhua", "sub": "100", "id": "31", "image": "https://masterku.github.io/lkun/lt31.jpg", "nama": "Episod 31" },
        { "komiktype": "manhua", "sub": "100", "id": "32", "image": "https://masterku.github.io/lkun/lt32.jpg", "nama": "Episod 32" },
        { "komiktype": "manhua", "sub": "100", "id": "33", "image": "https://masterku.github.io/lkun/lt33.jpg", "nama": "Episod 33" },
        { "komiktype": "manhua", "sub": "100", "id": "34", "image": "https://masterku.github.io/lkun/lt34.jpg", "nama": "Episod 34" },
		{ "komiktype": "manhua", "sub": "100", "id": "35", "image": "https://masterku.github.io/lkun/lt35.jpg", "nama": "Episod 35" },
        { "komiktype": "manhua", "sub": "100", "id": "36", "image": "https://masterku.github.io/lkun/lt36.jpg", "nama": "Episod 36" },
        { "komiktype": "manhua", "sub": "100", "id": "37", "image": "https://masterku.github.io/lkun/lt37.jpg", "nama": "Episod 37" },
        { "komiktype": "manhua", "sub": "100", "id": "38", "image": "https://masterku.github.io/lkun/lt38.jpg", "nama": "Episod 38" },
        { "komiktype": "manhua", "sub": "100", "id": "39", "image": "https://masterku.github.io/lkun/lt39.jpg", "nama": "Episod 39" },
		{ "komiktype": "manhua", "sub": "100", "id": "40", "image": "https://masterku.github.io/lkun/lt40.jpg", "nama": "Episod 40" },
        { "komiktype": "manhua", "sub": "100", "id": "41", "image": "https://masterku.github.io/lkun/lt41.jpg", "nama": "Episod 41" },
        { "komiktype": "manhua", "sub": "100", "id": "42", "image": "https://masterku.github.io/lkun/lt42.jpg", "nama": "Episod 42" },
        { "komiktype": "manhua", "sub": "100", "id": "43", "image": "https://masterku.github.io/lkun/lt43.jpg", "nama": "Episod 43" },
        { "komiktype": "manhua", "sub": "100", "id": "44", "image": "https://masterku.github.io/lkun/lt44.jpg", "nama": "Episod 44" },
		{ "komiktype": "manhua", "sub": "100", "id": "45", "image": "https://masterku.github.io/lkun/lt45.jpg", "nama": "Episod 45" },
        { "komiktype": "manhua", "sub": "100", "id": "46", "image": "https://masterku.github.io/lkun/lt46.jpg", "nama": "Episod 46" },
        { "komiktype": "manhua", "sub": "100", "id": "47", "image": "https://masterku.github.io/lkun/lt47.jpg", "nama": "Episod 47" },
        { "komiktype": "manhua", "sub": "100", "id": "48", "image": "https://masterku.github.io/lkun/lt48.jpg", "nama": "Episod 48" },
        { "komiktype": "manhua", "sub": "100", "id": "49", "image": "https://masterku.github.io/lkun/lt49.jpg", "nama": "Episod 49" },
		{ "komiktype": "manhua", "sub": "100", "id": "50", "image": "https://masterku.github.io/lkun/lt50.jpg", "nama": "Episod 50" },
        { "komiktype": "manhua", "sub": "100", "id": "51", "image": "https://masterku.github.io/lkun/lt51.jpg", "nama": "Episod 51" },
        { "komiktype": "manhua", "sub": "100", "id": "52", "image": "https://masterku.github.io/lkun/lt52.jpg", "nama": "Episod 52" },
        { "komiktype": "manhua", "sub": "100", "id": "53", "image": "https://masterku.github.io/lkun/lt53.jpg", "nama": "Episod 53" },
        { "komiktype": "manhua", "sub": "100", "id": "54", "image": "https://masterku.github.io/lkun/lt54.jpg", "nama": "Episod 54" },
		{ "komiktype": "manhua", "sub": "100", "id": "55", "image": "https://masterku.github.io/lkun/lt55.jpg", "nama": "Episod 55" },
        { "komiktype": "manhua", "sub": "100", "id": "56", "image": "https://masterku.github.io/lkun/lt56.jpg", "nama": "Episod 56" },
        { "komiktype": "manhua", "sub": "100", "id": "57", "image": "https://masterku.github.io/lkun/lt57.jpg", "nama": "Episod 57" },
        { "komiktype": "manhua", "sub": "100", "id": "58", "image": "https://masterku.github.io/lkun/lt58.jpg", "nama": "Episod 58" },
        { "komiktype": "manhua", "sub": "100", "id": "59", "image": "https://masterku.github.io/lkun/lt59.jpg", "nama": "Episod 59" },
		{ "komiktype": "manhua", "sub": "100", "id": "60", "image": "https://masterku.github.io/lkun/lt60.jpg", "nama": "Episod 60" },
        { "komiktype": "manhua", "sub": "100", "id": "61", "image": "https://masterku.github.io/lkun/lt61.jpg", "nama": "Episod 61" },
        { "komiktype": "manhua", "sub": "100", "id": "62", "image": "https://masterku.github.io/lkun/lt62.jpg", "nama": "Episod 62" },
        { "komiktype": "manhua", "sub": "100", "id": "63", "image": "https://masterku.github.io/lkun/lt63.jpg", "nama": "Episod 63" },
        { "komiktype": "manhua", "sub": "100", "id": "64", "image": "https://masterku.github.io/lkun/lt64.jpg", "nama": "Episod 64" },
		{ "komiktype": "manhua", "sub": "100", "id": "65", "image": "https://masterku.github.io/lkun/lt65.jpg", "nama": "Episod 65" },
        { "komiktype": "manhua", "sub": "100", "id": "66", "image": "https://masterku.github.io/lkun/lt66.jpg", "nama": "Episod 66" },
        { "komiktype": "manhua", "sub": "100", "id": "67", "image": "https://masterku.github.io/lkun/lt67.jpg", "nama": "Episod 67" },
        { "komiktype": "manhua", "sub": "100", "id": "68", "image": "https://masterku.github.io/lkun/lt68.jpg", "nama": "Episod 68" },
        { "komiktype": "manhua", "sub": "100", "id": "69", "image": "https://masterku.github.io/lkun/lt69.jpg", "nama": "Episod 69" },
		{ "komiktype": "manhua", "sub": "100", "id": "70", "image": "https://masterku.github.io/lkun/lt70.jpg", "nama": "Episod 70" },
        { "komiktype": "manhua", "sub": "100", "id": "71", "image": "https://masterku.github.io/lkun/lt71.jpg", "nama": "Episod 71" },
        { "komiktype": "manhua", "sub": "100", "id": "72", "image": "https://masterku.github.io/lkun/lt72.jpg", "nama": "Episod 72" },
        { "komiktype": "manhua", "sub": "100", "id": "73", "image": "https://masterku.github.io/lkun/lt73.jpg", "nama": "Episod 73" },
        { "komiktype": "manhua", "sub": "100", "id": "74", "image": "https://masterku.github.io/lkun/lt74.jpg", "nama": "Episod 74" },
		{ "komiktype": "manhua", "sub": "100", "id": "75", "image": "https://masterku.github.io/lkun/lt75.jpg", "nama": "Episod 75" },
        { "komiktype": "manhua", "sub": "100", "id": "76", "image": "https://masterku.github.io/lkun/lt76.jpg", "nama": "Episod 76" },
        { "komiktype": "manhua", "sub": "100", "id": "77", "image": "https://masterku.github.io/lkun/lt77.jpg", "nama": "Episod 77" },
        { "komiktype": "manhua", "sub": "100", "id": "78", "image": "https://masterku.github.io/lkun/lt78.jpg", "nama": "Episod 78" },
        { "komiktype": "manhua", "sub": "100", "id": "79", "image": "https://masterku.github.io/lkun/lt79.jpg", "nama": "Episod 79" },
		{ "komiktype": "manhua", "sub": "100", "id": "80", "image": "https://masterku.github.io/lkun/lt80.jpg", "nama": "Episod 80" },        
        { "komiktype": "manhua", "sub": "100", "id": "81", "image": "https://masterku.github.io/lkun/lt81.jpg", "nama": "Episod 81" },
        { "komiktype": "manhua", "sub": "100", "id": "82", "image": "https://masterku.github.io/lkun/lt82.jpg", "nama": "Episod 82" },
        { "komiktype": "manhua", "sub": "100", "id": "83", "image": "https://masterku.github.io/lkun/lt83.jpg", "nama": "Episod 83" },
        { "komiktype": "manhua", "sub": "100", "id": "84", "image": "https://masterku.github.io/lkun/lt84.jpg", "nama": "Episod 84" },
		{ "komiktype": "manhua", "sub": "100", "id": "85", "image": "https://masterku.github.io/lkun/lt85.jpg", "nama": "Episod 85" },
        { "komiktype": "manhua", "sub": "100", "id": "86", "image": "https://masterku.github.io/lkun/lt86.jpg", "nama": "Episod 86" },
        { "komiktype": "manhua", "sub": "100", "id": "87", "image": "https://masterku.github.io/lkun/lt87.jpg", "nama": "Episod 87" },
        { "komiktype": "manhua", "sub": "100", "id": "88", "image": "https://masterku.github.io/lkun/lt88.jpg", "nama": "Episod 88" },
        { "komiktype": "manhua", "sub": "100", "id": "89", "image": "https://masterku.github.io/lkun/lt89.jpg", "nama": "Episod 89" },
		{ "komiktype": "manhua", "sub": "100", "id": "90", "image": "https://masterku.github.io/lkun/lt90.jpg", "nama": "Episod 90" },
        { "komiktype": "manhua", "sub": "100", "id": "91", "image": "https://masterku.github.io/lkun/lt91.jpg", "nama": "Episod 91" },
        { "komiktype": "manhua", "sub": "100", "id": "92", "image": "https://masterku.github.io/lkun/lt92.jpg", "nama": "Episod 92" },
        { "komiktype": "manhua", "sub": "100", "id": "93", "image": "https://masterku.github.io/lkun/lt93.jpg", "nama": "Episod 93" },
        { "komiktype": "manhua", "sub": "100", "id": "94", "image": "https://masterku.github.io/lkun/lt94.jpg", "nama": "Episod 94" },
		{ "komiktype": "manhua", "sub": "100", "id": "95", "image": "https://masterku.github.io/lkun/lt95.jpg", "nama": "Episod 95" },
        { "komiktype": "manhua", "sub": "100", "id": "96", "image": "https://masterku.github.io/lkun/lt96.jpg", "nama": "Episod 96" },
        { "komiktype": "manhua", "sub": "100", "id": "97", "image": "https://masterku.github.io/lkun/lt97.jpg", "nama": "Episod 97" },
        { "komiktype": "manhua", "sub": "100", "id": "98", "image": "https://masterku.github.io/lkun/lt98.jpg", "nama": "Episod 98" },
        { "komiktype": "manhua", "sub": "100", "id": "99", "image": "https://masterku.github.io/lkun/lt99.jpg", "nama": "Episod 99" }
    ]
}