{
    "aaData": [
        { "komiktype": "manhua", "sub": "93", "id": "1", "image": "https://masterku.github.io/ds/ds001.jpg", "nama": "Episod 01" },
        { "komiktype": "manhua", "sub": "93", "id": "2", "image": "https://masterku.github.io/ds/ds002.jpg", "nama": "Episod 02" },
        { "komiktype": "manhua", "sub": "93", "id": "3", "image": "https://masterku.github.io/ds/ds003.jpg", "nama": "Episod 03" },
        { "komiktype": "manhua", "sub": "93", "id": "4", "image": "https://masterku.github.io/ds/ds004.jpg", "nama": "Episod 04" },
		{ "komiktype": "manhua", "sub": "93", "id": "5", "image": "https://masterku.github.io/ds/ds005.jpg", "nama": "Episod 05" },
		{ "komiktype": "manhua", "sub": "93", "id": "6", "image": "https://masterku.github.io/ds/ds006.jpg", "nama": "Episod 06" },
        { "komiktype": "manhua", "sub": "93", "id": "7", "image": "https://masterku.github.io/ds/ds007.jpg", "nama": "Episod 07" },
        { "komiktype": "manhua", "sub": "93", "id": "8", "image": "https://masterku.github.io/ds/ds008.jpg", "nama": "Episod 08" },
        { "komiktype": "manhua", "sub": "93", "id": "9", "image": "https://masterku.github.io/ds/ds009.jpg", "nama": "Episod 09" },
		{ "komiktype": "manhua", "sub": "93", "id": "10", "image": "https://masterku.github.io/ds/ds010.jpg", "nama": "Episod 10" },
		{ "komiktype": "manhua", "sub": "93", "id": "11", "image": "https://masterku.github.io/ds/ds011.jpg", "nama": "Episod 11" },
        { "komiktype": "manhua", "sub": "93", "id": "12", "image": "https://masterku.github.io/ds/ds012.jpg", "nama": "Episod 12" },
        { "komiktype": "manhua", "sub": "93", "id": "13", "image": "https://masterku.github.io/ds/ds013.jpg", "nama": "Episod 13" },
        { "komiktype": "manhua", "sub": "93", "id": "14", "image": "https://masterku.github.io/ds/ds014.jpg", "nama": "Episod 14" },
		{ "komiktype": "manhua", "sub": "93", "id": "15", "image": "https://masterku.github.io/ds/ds015.jpg", "nama": "Episod 15" },
		{ "komiktype": "manhua", "sub": "93", "id": "16", "image": "https://masterku.github.io/ds/ds016.jpg", "nama": "Episod 16" },
        { "komiktype": "manhua", "sub": "93", "id": "17", "image": "https://masterku.github.io/ds/ds017.jpg", "nama": "Episod 17" },
        { "komiktype": "manhua", "sub": "93", "id": "18", "image": "https://masterku.github.io/ds/ds018.jpg", "nama": "Episod 18" },
        { "komiktype": "manhua", "sub": "93", "id": "19", "image": "https://masterku.github.io/ds/ds019.jpg", "nama": "Episod 19" },
		{ "komiktype": "manhua", "sub": "93", "id": "20", "image": "https://masterku.github.io/ds/ds020.jpg", "nama": "Episod 20" },
		{ "komiktype": "manhua", "sub": "93", "id": "21", "image": "https://masterku.github.io/ds/ds021.jpg", "nama": "Episod 21" },
        { "komiktype": "manhua", "sub": "93", "id": "22", "image": "https://masterku.github.io/ds/ds022.jpg", "nama": "Episod 22" },
        { "komiktype": "manhua", "sub": "93", "id": "23", "image": "https://masterku.github.io/ds/ds023.jpg", "nama": "Episod 23" },
        { "komiktype": "manhua", "sub": "93", "id": "24", "image": "https://masterku.github.io/ds/ds024.jpg", "nama": "Episod 24" },
		{ "komiktype": "manhua", "sub": "93", "id": "25", "image": "https://masterku.github.io/ds/ds025.jpg", "nama": "Episod 25" },
		{ "komiktype": "manhua", "sub": "93", "id": "26", "image": "https://masterku.github.io/ds/ds026.jpg", "nama": "Episod 26" },
        { "komiktype": "manhua", "sub": "93", "id": "27", "image": "https://masterku.github.io/ds/ds027.jpg", "nama": "Episod 27" },
        { "komiktype": "manhua", "sub": "93", "id": "28", "image": "https://masterku.github.io/ds/ds028.jpg", "nama": "Episod 28" },
        { "komiktype": "manhua", "sub": "93", "id": "29", "image": "https://masterku.github.io/ds/ds029.jpg", "nama": "Episod 29" },
		{ "komiktype": "manhua", "sub": "93", "id": "30", "image": "https://masterku.github.io/ds/ds030.jpg", "nama": "Episod 30" },
		{ "komiktype": "manhua", "sub": "93", "id": "31", "image": "https://masterku.github.io/ds/ds031.jpg", "nama": "Episod 31" },
        { "komiktype": "manhua", "sub": "93", "id": "32", "image": "https://masterku.github.io/ds/ds032.jpg", "nama": "Episod 32" },
        { "komiktype": "manhua", "sub": "93", "id": "33", "image": "https://masterku.github.io/ds/ds033.jpg", "nama": "Episod 33" },
        { "komiktype": "manhua", "sub": "93", "id": "34", "image": "https://masterku.github.io/ds/ds034.jpg", "nama": "Episod 34" },
		{ "komiktype": "manhua", "sub": "93", "id": "35", "image": "https://masterku.github.io/ds/ds035.jpg", "nama": "Episod 35" },
		{ "komiktype": "manhua", "sub": "93", "id": "36", "image": "https://masterku.github.io/ds/ds036.jpg", "nama": "Episod 36" },
        { "komiktype": "manhua", "sub": "93", "id": "37", "image": "https://masterku.github.io/ds/ds037.jpg", "nama": "Episod 37" },
        { "komiktype": "manhua", "sub": "93", "id": "38", "image": "https://masterku.github.io/ds/ds038.jpg", "nama": "Episod 38" },
        { "komiktype": "manhua", "sub": "93", "id": "39", "image": "https://masterku.github.io/ds/ds039.jpg", "nama": "Episod 39" },
		{ "komiktype": "manhua", "sub": "93", "id": "40", "image": "https://masterku.github.io/ds/ds040.jpg", "nama": "Episod 40" },
		{ "komiktype": "manhua", "sub": "93", "id": "41", "image": "https://masterku.github.io/ds/ds041.jpg", "nama": "Episod 41" },
        { "komiktype": "manhua", "sub": "93", "id": "42", "image": "https://masterku.github.io/ds/ds042.jpg", "nama": "Episod 42" },
        { "komiktype": "manhua", "sub": "93", "id": "43", "image": "https://masterku.github.io/ds/ds043.jpg", "nama": "Episod 43" },
        { "komiktype": "manhua", "sub": "93", "id": "44", "image": "https://masterku.github.io/ds/ds044.jpg", "nama": "Episod 44" },
		{ "komiktype": "manhua", "sub": "93", "id": "45", "image": "https://masterku.github.io/ds/ds045.jpg", "nama": "Episod 45" },
		{ "komiktype": "manhua", "sub": "93", "id": "46", "image": "https://masterku.github.io/ds/ds046.jpg", "nama": "Episod 46" },
        { "komiktype": "manhua", "sub": "93", "id": "47", "image": "https://masterku.github.io/ds/ds047.jpg", "nama": "Episod 47" },
        { "komiktype": "manhua", "sub": "93", "id": "48", "image": "https://masterku.github.io/ds/ds048.jpg", "nama": "Episod 48" },
        { "komiktype": "manhua", "sub": "93", "id": "49", "image": "https://masterku.github.io/ds/ds049.jpg", "nama": "Episod 49" },
		{ "komiktype": "manhua", "sub": "93", "id": "50", "image": "https://masterku.github.io/ds/ds050.jpg", "nama": "Episod 50" },
		{ "komiktype": "manhua", "sub": "93", "id": "51", "image": "https://masterku.github.io/ds/ds051.jpg", "nama": "Episod 51" },
        { "komiktype": "manhua", "sub": "93", "id": "52", "image": "https://masterku.github.io/ds/ds052.jpg", "nama": "Episod 52" },
        { "komiktype": "manhua", "sub": "93", "id": "53", "image": "https://masterku.github.io/ds/ds053.jpg", "nama": "Episod 53(by Are May)" },
        { "komiktype": "manhua", "sub": "93", "id": "54", "image": "https://masterku.github.io/ds/ds054.jpg", "nama": "Episod 54(Cina)" },
        { "komiktype": "manhua", "sub": "93", "id": "55", "image": "https://masterku.github.io/ds/ds055.jpg", "nama": "Episod 55(Cina)" },
        { "komiktype": "manhua", "sub": "93", "id": "56", "image": "https://masterku.github.io/ds/ds056.jpg", "nama": "Episod 56(Cina)" },
        { "komiktype": "manhua", "sub": "93", "id": "57", "image": "https://masterku.github.io/ds/ds057.jpg", "nama": "Episod 57(Cina)" },
        { "komiktype": "manhua", "sub": "93", "id": "58", "image": "https://masterku.github.io/ds/ds058.jpg", "nama": "Episod 58(Cina)" },
        { "komiktype": "manhua", "sub": "93", "id": "59", "image": "https://masterku.github.io/ds/ds059.jpg", "nama": "Episod 59(Cina)" },
        { "komiktype": "manhua", "sub": "93", "id": "60", "image": "https://masterku.github.io/ds/ds060.jpg", "nama": "Episod 60(Cina)" },
        { "komiktype": "manhua", "sub": "93", "id": "61", "image": "https://masterku.github.io/ds/ds061.jpg", "nama": "Episod 61(Cina)" },
        { "komiktype": "manhua", "sub": "93", "id": "62", "image": "https://masterku.github.io/ds/ds062.jpg", "nama": "Episod 62(Cina)" },
        { "komiktype": "manhua", "sub": "93", "id": "63", "image": "https://masterku.github.io/ds/ds063.jpg", "nama": "Episod 63(Cina)" },
        { "komiktype": "manhua", "sub": "93", "id": "64", "image": "https://masterku.github.io/ds/ds064.jpg", "nama": "Episod 64(Cina)" },
        { "komiktype": "manhua", "sub": "93", "id": "65", "image": "https://masterku.github.io/ds/ds065.jpg", "nama": "Episod 65(Cina)" },
        { "komiktype": "manhua", "sub": "93", "id": "66", "image": "https://masterku.github.io/ds/ds066.jpg", "nama": "Episod 66(Cina)" },
        { "komiktype": "manhua", "sub": "93", "id": "67", "image": "https://masterku.github.io/ds/ds067.jpg", "nama": "Episod 67(Cina)" },
        { "komiktype": "manhua", "sub": "93", "id": "68", "image": "https://masterku.github.io/ds/ds068.jpg", "nama": "Episod 68(Cina)" },
        { "komiktype": "manhua", "sub": "93", "id": "69", "image": "https://masterku.github.io/ds/ds069.jpg", "nama": "Episod 69(Cina)" },
        { "komiktype": "manhua", "sub": "93", "id": "70", "image": "https://masterku.github.io/ds/ds070.jpg", "nama": "Episod 70(Cina)" },
        { "komiktype": "manhua", "sub": "93", "id": "71", "image": "https://masterku.github.io/ds/ds071.jpg", "nama": "Episod 71(Cina)" },
        { "komiktype": "manhua", "sub": "93", "id": "72", "image": "https://masterku.github.io/ds/ds072.jpg", "nama": "Episod 72(Cina)" },
        { "komiktype": "manhua", "sub": "93", "id": "73", "image": "https://masterku.github.io/ds/ds073.jpg", "nama": "Episod 73(Cina)" },
        { "komiktype": "manhua", "sub": "93", "id": "74", "image": "https://masterku.github.io/ds/ds074.jpg", "nama": "Episod 74(Cina)" },
        { "komiktype": "manhua", "sub": "93", "id": "75", "image": "https://masterku.github.io/ds/ds075.jpg", "nama": "Episod 75(Cina)" },
        { "komiktype": "manhua", "sub": "93", "id": "76", "image": "https://masterku.github.io/ds/ds076.jpg", "nama": "Episod 76(Cina)" },
        { "komiktype": "manhua", "sub": "93", "id": "77", "image": "https://masterku.github.io/ds/ds077.jpg", "nama": "Episod 77(Cina)" },
        { "komiktype": "manhua", "sub": "93", "id": "78", "image": "https://masterku.github.io/ds/ds078.jpg", "nama": "Episod 78(Cina)" },
        { "komiktype": "manhua", "sub": "93", "id": "79", "image": "https://masterku.github.io/ds/ds079.jpg", "nama": "Episod 79(Cina)" },
        { "komiktype": "manhua", "sub": "93", "id": "80", "image": "https://masterku.github.io/ds/ds080.jpg", "nama": "Episod 80(Cina)" },
        { "komiktype": "manhua", "sub": "93", "id": "81", "image": "https://masterku.github.io/ds/ds081.jpg", "nama": "Episod 81(Cina)" },
        { "komiktype": "manhua", "sub": "93", "id": "82", "image": "https://masterku.github.io/ds/ds082.jpg", "nama": "Episod 82(Cina)" },
        { "komiktype": "manhua", "sub": "93", "id": "83", "image": "https://masterku.github.io/ds/ds083.jpg", "nama": "Episod 83(Cina)" },
        { "komiktype": "manhua", "sub": "93", "id": "84", "image": "https://masterku.github.io/ds/ds084.jpg", "nama": "Episod 84(Cina)" },
        { "komiktype": "manhua", "sub": "93", "id": "85", "image": "https://masterku.github.io/ds/ds085.jpg", "nama": "Episod 85(Cina)" },
        { "komiktype": "manhua", "sub": "93", "id": "86", "image": "https://masterku.github.io/ds/ds086.jpg", "nama": "Episod 86(Cina)" },
        { "komiktype": "manhua", "sub": "93", "id": "87", "image": "https://masterku.github.io/ds/ds087.jpg", "nama": "Episod 87(Cina)" },
        { "komiktype": "manhua", "sub": "93", "id": "88", "image": "https://masterku.github.io/ds/ds088.jpg", "nama": "Episod 88(Cina)" },
        { "komiktype": "manhua", "sub": "93", "id": "89", "image": "https://masterku.github.io/ds/ds089.jpg", "nama": "Episod 89(Cina)" },
        { "komiktype": "manhua", "sub": "93", "id": "90", "image": "https://masterku.github.io/ds/ds090.jpg", "nama": "Episod 90(Cina)" },
        { "komiktype": "manhua", "sub": "93", "id": "91", "image": "https://masterku.github.io/ds/ds091.jpg", "nama": "Episod 91(Cina)" },
        { "komiktype": "manhua", "sub": "93", "id": "92", "image": "https://masterku.github.io/ds/ds092.jpg", "nama": "Episod 92(Cina)" },
        { "komiktype": "manhua", "sub": "93", "id": "93", "image": "https://masterku.github.io/ds/ds093.jpg", "nama": "Episod 93(Cina)" },
        { "komiktype": "manhua", "sub": "93", "id": "94", "image": "https://masterku.github.io/ds/ds094.jpg", "nama": "Episod 94(Cina)" },
        { "komiktype": "manhua", "sub": "93", "id": "95", "image": "https://masterku.github.io/ds/ds095.jpg", "nama": "Episod 95(Cina)" },
        { "komiktype": "manhua", "sub": "93", "id": "96", "image": "https://masterku.github.io/ds/ds096.jpg", "nama": "Episod 96" },
        { "komiktype": "manhua", "sub": "93", "id": "97", "image": "https://masterku.github.io/ds/ds097.jpg", "nama": "Episod 97" },
        { "komiktype": "manhua", "sub": "93", "id": "98", "image": "https://masterku.github.io/ds/ds098.jpg", "nama": "Episod 98" },
        { "komiktype": "manhua", "sub": "93", "id": "99", "image": "https://masterku.github.io/ds/ds099.jpg", "nama": "Episod 99" },
        { "komiktype": "manhua", "sub": "93", "id": "100", "image": "https://masterku.github.io/ds/ds100.jpg", "nama": "Episod 100" },
        { "komiktype": "manhua", "sub": "93", "id": "101", "image": "https://masterku.github.io/ds/ds101.jpg", "nama": "Episod 101" },
        { "komiktype": "manhua", "sub": "93", "id": "102", "image": "https://masterku.github.io/ds/ds102.jpg", "nama": "Episod 102" }
    ]
}