{
    "aaData": [
        { "komiktype": "manhua", "sub": "22","id": "1","image": "https://masterku.github.io/wt4/wtpl499.jpg","nama": "Episode 499"},
        { "komiktype": "manhua", "sub": "22","id": "2","image": "https://masterku.github.io/wt4/wtpl500.jpg","nama": "Episode 500"},
        { "komiktype": "manhua", "sub": "22","id": "3","image": "https://masterku.github.io/wt4/wtpl501.jpg","nama": "Episode 501"},
        { "komiktype": "manhua", "sub": "22","id": "4","image": "https://masterku.github.io/wt4/wtpl502.jpg","nama": "Episode 502"},
        { "komiktype": "manhua", "sub": "22","id": "5","image": "https://masterku.github.io/wt4/wtpl503.jpg","nama": "Episode 503"},
        { "komiktype": "manhua", "sub": "22","id": "6","image": "https://masterku.github.io/wt4/wtpl504.jpg","nama": "Episode 504"},
        { "komiktype": "manhua", "sub": "22","id": "7","image": "https://masterku.github.io/wt4/wtpl505.jpg","nama": "Episode 505"},
        { "komiktype": "manhua", "sub": "22","id": "8","image": "https://masterku.github.io/wt4/wtpl506.jpg","nama": "Episode 506"},
        { "komiktype": "manhua", "sub": "22","id": "9","image": "https://masterku.github.io/wt4/wtpl507.jpg","nama": "Episode 507"},
        { "komiktype": "manhua", "sub": "22","id": "10","image": "https://masterku.github.io/wt4/wtpl508.jpg","nama": "Episode 508"},
        { "komiktype": "manhua", "sub": "22","id": "11","image": "https://masterku.github.io/wt4/wtpl509.jpg","nama": "Episode 509"},
        { "komiktype": "manhua", "sub": "22","id": "12","image": "https://masterku.github.io/wt4/wtpl510.jpg","nama": "Episode 510"},
        { "komiktype": "manhua", "sub": "22","id": "13","image": "https://masterku.github.io/wt4/wtpl511.jpg","nama": "Episode 511"},
        { "komiktype": "manhua", "sub": "22","id": "14","image": "https://masterku.github.io/wt4/wtpl512.jpg","nama": "Episode 512"},
        { "komiktype": "manhua", "sub": "22","id": "15","image": "https://masterku.github.io/wt4/wtpl513.jpg","nama": "Episode 513"},
        { "komiktype": "manhua", "sub": "22","id": "16","image": "https://masterku.github.io/wt4/wtpl514.jpg","nama": "Episode 514"},
        { "komiktype": "manhua", "sub": "22","id": "17","image": "https://masterku.github.io/wt4/wtpl515.jpg","nama": "Episode 515"},
        { "komiktype": "manhua", "sub": "22","id": "18","image": "https://masterku.github.io/wt4/wtpl516.jpg","nama": "Episode 516"},
        { "komiktype": "manhua", "sub": "22","id": "19","image": "https://masterku.github.io/wt4/wtpl517.jpg","nama": "Episode 517"},
        { "komiktype": "manhua", "sub": "22","id": "20","image": "https://masterku.github.io/wt4/wtpl518.jpg","nama": "Episode 518"},
        { "komiktype": "manhua", "sub": "22","id": "21","image": "https://masterku.github.io/wt4/wtpl519.jpg","nama": "Episode 519"},
        { "komiktype": "manhua", "sub": "22","id": "22","image": "https://masterku.github.io/wt4/wtpl520.jpg","nama": "Episode 520"},
        { "komiktype": "manhua", "sub": "22","id": "23","image": "https://masterku.github.io/wt4/wtpl521.jpg","nama": "Episode 521"},
        { "komiktype": "manhua", "sub": "22","id": "24","image": "https://masterku.github.io/wt4/wtpl522.jpg","nama": "Episode 522"},
        { "komiktype": "manhua", "sub": "22","id": "25","image": "https://masterku.github.io/wt4/wtpl523.jpg","nama": "Episode 523"},
        { "komiktype": "manhua", "sub": "22","id": "26","image": "https://masterku.github.io/wt4/wtpl524.jpg","nama": "Episode 524"},
        { "komiktype": "manhua", "sub": "22","id": "27","image": "https://masterku.github.io/wt4/wtpl525.jpg","nama": "Episode 525"},
        { "komiktype": "manhua", "sub": "22","id": "28","image": "https://masterku.github.io/wt4/wtpl526.jpg","nama": "Episode 526"},
        { "komiktype": "manhua", "sub": "22","id": "29","image": "https://masterku.github.io/wt4/wtpl527.jpg","nama": "Episode 527"},
        { "komiktype": "manhua", "sub": "22","id": "30","image": "https://masterku.github.io/wt4/wtpl528.jpg","nama": "Episode 528"},
        { "komiktype": "manhua", "sub": "22","id": "31","image": "https://masterku.github.io/wt4/wtpl529.jpg","nama": "Episode 529"},
        { "komiktype": "manhua", "sub": "22","id": "32","image": "https://masterku.github.io/wt4/wtpl530.jpg","nama": "Episode 530"},
        { "komiktype": "manhua", "sub": "22","id": "33","image": "https://masterku.github.io/wt4/wtpl531.jpg","nama": "Episode 531"},
        { "komiktype": "manhua", "sub": "22","id": "34","image": "https://masterku.github.io/wt4/wtpl532.jpg","nama": "Episode 532"},
        { "komiktype": "manhua", "sub": "22","id": "35","image": "https://masterku.github.io/wt4/wtpl533.jpg","nama": "Episode 533"},
        { "komiktype": "manhua", "sub": "22","id": "36","image": "https://masterku.github.io/wt4/wtpl534.jpg","nama": "Episode 534"},
        { "komiktype": "manhua", "sub": "22","id": "37","image": "https://masterku.github.io/wt4/wtpl535.jpg","nama": "Episode 535"},
        { "komiktype": "manhua", "sub": "22","id": "38","image": "https://masterku.github.io/wt4/wtpl536.jpg","nama": "Episode 536"},
        { "komiktype": "manhua", "sub": "22","id": "39","image": "https://masterku.github.io/wt4/wtpl537.jpg","nama": "Episode 537"},
        { "komiktype": "manhua", "sub": "22","id": "40","image": "https://masterku.github.io/wt4/wtpl538.jpg","nama": "Episode 538"},
        { "komiktype": "manhua", "sub": "22","id": "41","image": "https://masterku.github.io/wt4/wtpl539.jpg","nama": "Episode 539"},
        { "komiktype": "manhua", "sub": "22","id": "42","image": "https://masterku.github.io/wt4/wtpl540.jpg","nama": "Episode 540"},
        { "komiktype": "manhua", "sub": "22","id": "43","image": "https://masterku.github.io/wt4/wtpl541.jpg","nama": "Episode 541"},
        { "komiktype": "manhua", "sub": "22","id": "44","image": "https://masterku.github.io/wt4/wtpl542.jpg","nama": "Episode 542"},
        { "komiktype": "manhua", "sub": "22","id": "45","image": "https://masterku.github.io/wt4/wtpl543.jpg","nama": "Episode 543"},
        { "komiktype": "manhua", "sub": "22","id": "46","image": "https://masterku.github.io/wt4/wtpl544.jpg","nama": "Episode 544"},
        { "komiktype": "manhua", "sub": "22","id": "47","image": "https://masterku.github.io/wt4/wtpl545.jpg","nama": "Episode 545"},
        { "komiktype": "manhua", "sub": "22","id": "48","image": "https://masterku.github.io/wt4/wtpl546.jpg","nama": "Episode 546"},
        { "komiktype": "manhua", "sub": "22","id": "49","image": "https://masterku.github.io/wt4/wtpl547.jpg","nama": "Episode 547"},
        { "komiktype": "manhua", "sub": "22","id": "50","image": "https://masterku.github.io/wt4/wtpl548.jpg","nama": "Episode 548"}
    ]
}
