{
    "aaData": [
        { "komiktype": "manhua", "sub": "36", "id": "1", "image": "resources/images/main36/jdr101.jpg", "nama": "Episode 01" },
        { "komiktype": "manhua", "sub": "36", "id": "2", "image": "resources/images/main36/jdr101.jpg", "nama": "Episode 02" },
        { "komiktype": "manhua", "sub": "36", "id": "3", "image": "resources/images/main36/jdr101.jpg", "nama": "Episode 03" },
        { "komiktype": "manhua", "sub": "36", "id": "4", "image": "resources/images/main36/jdr101.jpg", "nama": "Episode 04" },
        { "komiktype": "manhua", "sub": "36", "id": "5", "image": "resources/images/main36/jdr101.jpg", "nama": "Episode 05" },
        { "komiktype": "manhua", "sub": "36", "id": "6", "image": "resources/images/main36/jdr101.jpg", "nama": "Episode 06" },
		{ "komiktype": "manhua", "sub": "36", "id": "7", "image": "resources/images/main36/jdr102.jpg", "nama": "Episode 07" },
		{ "komiktype": "manhua", "sub": "36", "id": "8", "image": "resources/images/main36/jdr102.jpg", "nama": "Episode 08" },
		{ "komiktype": "manhua", "sub": "36", "id": "9", "image": "resources/images/main36/jdr102.jpg", "nama": "Episode 09" },
		{ "komiktype": "manhua", "sub": "36", "id": "10", "image": "resources/images/main36/jdr102.jpg", "nama": "Episode 10" },
		{ "komiktype": "manhua", "sub": "36", "id": "11", "image": "resources/images/main36/jdr102.jpg", "nama": "Episode 11" },
		{ "komiktype": "manhua", "sub": "36", "id": "12", "image": "resources/images/main36/jdr102.jpg", "nama": "Episode 12" }
    ]
}