{
    "aaData": [
        {  "image": "https://masterku.github.io/jwvb/main123/JejWira101/cyclonmaster.blogspot.com01.jpg", "id": 1  },
        {  "image": "https://masterku.github.io/jwvb/main123/JejWira101/cyclonmaster.blogspot.com02.jpg", "id": 2  },
		{  "image": "https://masterku.github.io/jwvb/main123/JejWira101/cyclonmaster.blogspot.com03.jpg", "id": 3  },
		{  "image": "https://masterku.github.io/jwvb/main123/JejWira101/cyclonmaster.blogspot.com04.jpg", "id": 4  },
		{  "image": "https://masterku.github.io/jwvb/main123/JejWira101/cyclonmaster.blogspot.com05.jpg", "id": 5  },
		{  "image": "https://masterku.github.io/jwvb/main123/JejWira101/cyclonmaster.blogspot.com06.jpg", "id": 6  },
		{  "image": "https://masterku.github.io/jwvb/main123/JejWira101/cyclonmaster.blogspot.com07.jpg", "id": 7  },
		{  "image": "https://masterku.github.io/jwvb/main123/JejWira101/cyclonmaster.blogspot.com08.jpg", "id": 8  },
		{  "image": "https://masterku.github.io/jwvb/main123/JejWira101/cyclonmaster.blogspot.com09.jpg", "id": 9  },
		{  "image": "https://masterku.github.io/jwvb/main123/JejWira101/cyclonmaster.blogspot.com10.jpg", "id": 10  },
		{  "image": "https://masterku.github.io/jwvb/main123/JejWira101/cyclonmaster.blogspot.com11.jpg", "id": 11  },
		{  "image": "https://masterku.github.io/jwvb/main123/JejWira101/cyclonmaster.blogspot.com12.jpg", "id": 12  },
		{  "image": "https://masterku.github.io/jwvb/main123/JejWira101/cyclonmaster.blogspot.com13.jpg", "id": 13  },
		{  "image": "https://masterku.github.io/jwvb/main123/JejWira101/cyclonmaster.blogspot.com14.jpg", "id": 14  },
		{  "image": "https://masterku.github.io/jwvb/main123/JejWira101/cyclonmaster.blogspot.com15.jpg", "id": 15  },
		{  "image": "https://masterku.github.io/jwvb/main123/JejWira101/cyclonmaster.blogspot.com16.jpg", "id": 16  },
		{  "image": "https://masterku.github.io/jwvb/main123/JejWira101/cyclonmaster.blogspot.com17.jpg", "id": 17  },
		{  "image": "https://masterku.github.io/jwvb/main123/JejWira101/cyclonmaster.blogspot.com18.jpg", "id": 18  },
		{  "image": "https://masterku.github.io/jwvb/main123/JejWira101/cyclonmaster.blogspot.com19.jpg", "id": 19  },
		{  "image": "https://masterku.github.io/jwvb/main123/JejWira101/cyclonmaster.blogspot.com20.jpg", "id": 20  },
		{  "image": "https://masterku.github.io/jwvb/main123/JejWira101/cyclonmaster.blogspot.com21.jpg", "id": 21  },
        {  "image": "https://masterku.github.io/jwvb/main123/JejWira101/cyclonmaster.blogspot.com22.jpg", "id": 22  },
		{  "image": "https://masterku.github.io/jwvb/main123/JejWira101/cyclonmaster.blogspot.com23.jpg", "id": 23  },
        {  "image": "https://masterku.github.io/jwvb/main123/JejWira101/cyclonmaster.blogspot.com24.jpg", "id": 24  },
		{  "image": "https://masterku.github.io/jwvb/main123/JejWira101/cyclonmaster.blogspot.com25.jpg", "id": 25  },
		{  "image": "https://masterku.github.io/jwvb/main123/JejWira101/cyclonmaster.blogspot.com26.jpg", "id": 26  },
		{  "image": "https://masterku.github.io/jwvb/main123/JejWira101/cyclonmaster.blogspot.com27.jpg", "id": 27  },
        {  "image": "https://masterku.github.io/jwvb/main123/JejWira101/cyclonmaster.blogspot.com28.jpg", "id": 28  },
		{  "image": "https://masterku.github.io/jwvb/main123/JejWira101/cyclonmaster.blogspot.com29.jpg", "id": 29  },
        {  "image": "https://masterku.github.io/jwvb/main123/JejWira101/cyclonmaster.blogspot.com30.jpg", "id": 30  },
        {  "image": "https://masterku.github.io/jwvb/main123/JejWira101/cyclonmaster.blogspot.com31.jpg", "id": 31  },
        {  "image": "https://masterku.github.io/jwvb/main123/JejWira101/cyclonmaster.blogspot.com32.jpg", "id": 32  },
		{  "image": "https://masterku.github.io/jwvb/main123/JejWira101/cyclonmaster.blogspot.com33.jpg", "id": 33  },
        {  "image": "https://masterku.github.io/jwvb/main123/JejWira101/cyclonmaster.blogspot.com34.jpg", "id": 34  },
        {  "image": "https://masterku.github.io/jwvb/main123/JejWira101/cyclonmaster.blogspot.com35.jpg", "id": 35  },
        {  "image": "https://masterku.github.io/jwvb/main123/JejWira101/cyclonmaster.blogspot.com36.jpg", "id": 36  },
        {  "image": "https://masterku.github.io/jwvb/main123/JejWira101/cyclonmaster.blogspot.com37.jpg", "id": 37  },
        {  "image": "https://masterku.github.io/jwvb/main123/JejWira101/cyclonmaster.blogspot.com38.jpg", "id": 38  },
        {  "image": "https://masterku.github.io/jwvb/main123/JejWira101/cyclonmaster.blogspot.com39.jpg", "id": 39  },
        {  "image": "https://masterku.github.io/jwvb/main123/JejWira101/cyclonmaster.blogspot.com40.jpg", "id": 40  }
    ]
}