{
    "aaData": [
        { "komiktype": "manhua", "sub": "149", "id": "1", "image": "https://masterku.github.io/jwtamb/pjw3/pjw3001.jpg", "nama": "Episod 01" },
        { "komiktype": "manhua", "sub": "149", "id": "2", "image": "https://masterku.github.io/jwtamb/pjw3/pjw3002.jpg", "nama": "Episod 02" },
        { "komiktype": "manhua", "sub": "149", "id": "3", "image": "https://masterku.github.io/jwtamb/pjw3/pjw3003.jpg", "nama": "Episod 03" },
        { "komiktype": "manhua", "sub": "149", "id": "4", "image": "https://masterku.github.io/jwtamb/pjw3/pjw3004.jpg", "nama": "Episod 04" },
        { "komiktype": "manhua", "sub": "149", "id": "5", "image": "https://masterku.github.io/jwtamb/pjw3/pjw3005.jpg", "nama": "Episod 05" },
        { "komiktype": "manhua", "sub": "149", "id": "6", "image": "https://masterku.github.io/jwtamb/pjw3/pjw3006.jpg", "nama": "Episod 06" },
        { "komiktype": "manhua", "sub": "149", "id": "7", "image": "https://masterku.github.io/jwtamb/pjw3/pjw3007.jpg", "nama": "Episod 07" },
        { "komiktype": "manhua", "sub": "149", "id": "8", "image": "https://masterku.github.io/jwtamb/pjw3/pjw3008.jpg", "nama": "Episod 08" },
        { "komiktype": "manhua", "sub": "149", "id": "9", "image": "https://masterku.github.io/jwtamb/pjw3/pjw3009.jpg", "nama": "Episod 09" },
        { "komiktype": "manhua", "sub": "149", "id": "10", "image": "https://masterku.github.io/jwtamb/pjw3/pjw3010.jpg", "nama": "Episod 10" },
        { "komiktype": "manhua", "sub": "149", "id": "11", "image": "https://masterku.github.io/jwtamb/pjw3/pjw3011.jpg", "nama": "Episod 11" },
        { "komiktype": "manhua", "sub": "149", "id": "12", "image": "https://masterku.github.io/jwtamb/pjw3/pjw3012.jpg", "nama": "Episod 12" },
        { "komiktype": "manhua", "sub": "149", "id": "13", "image": "https://masterku.github.io/jwtamb/pjw3/pjw3013.jpg", "nama": "Episod 13" },
        { "komiktype": "manhua", "sub": "149", "id": "14", "image": "https://masterku.github.io/jwtamb/pjw3/pjw3014.jpg", "nama": "Episod 14" },
        { "komiktype": "manhua", "sub": "149", "id": "15", "image": "https://masterku.github.io/jwtamb/pjw3/pjw3015.jpg", "nama": "Episod 15" },
        { "komiktype": "manhua", "sub": "149", "id": "16", "image": "https://masterku.github.io/jwtamb/pjw3/pjw3016.jpg", "nama": "Episod 16" },
        { "komiktype": "manhua", "sub": "149", "id": "17", "image": "https://masterku.github.io/jwtamb/pjw3/pjw3017.jpg", "nama": "Episod 17" },
        { "komiktype": "manhua", "sub": "149", "id": "18", "image": "https://masterku.github.io/jwtamb/pjw3/pjw3018.jpg", "nama": "Episod 18" },
        { "komiktype": "manhua", "sub": "149", "id": "19", "image": "https://masterku.github.io/jwtamb/pjw3/pjw3019.jpg", "nama": "Episod 19" },
        { "komiktype": "manhua", "sub": "149", "id": "20", "image": "https://masterku.github.io/jwtamb/pjw3/pjw3020.jpg", "nama": "Episod 20" },
        { "komiktype": "manhua", "sub": "149", "id": "21", "image": "https://masterku.github.io/jwtamb/pjw3/pjw3021.jpg", "nama": "Episod 21" },
        { "komiktype": "manhua", "sub": "149", "id": "22", "image": "https://masterku.github.io/jwtamb/pjw3/pjw3022.jpg", "nama": "Episod 22" },
        { "komiktype": "manhua", "sub": "149", "id": "23", "image": "https://masterku.github.io/jwtamb/pjw3/pjw3023.jpg", "nama": "Episod 23" },
        { "komiktype": "manhua", "sub": "149", "id": "24", "image": "https://masterku.github.io/jwtamb/pjw3/pjw3024.jpg", "nama": "Episod 24" },
        { "komiktype": "manhua", "sub": "149", "id": "25", "image": "https://masterku.github.io/jwtamb/pjw3/pjw3025.jpg", "nama": "Episod 25" },
        { "komiktype": "manhua", "sub": "149", "id": "26", "image": "https://masterku.github.io/jwtamb/pjw3/pjw3026.jpg", "nama": "Episod 26" },
        { "komiktype": "manhua", "sub": "149", "id": "27", "image": "https://masterku.github.io/jwtamb/pjw3/pjw3027.jpg", "nama": "Episod 27" },
        { "komiktype": "manhua", "sub": "149", "id": "28", "image": "https://masterku.github.io/jwtamb/pjw3/pjw3028.jpg", "nama": "Episod 28" },
        { "komiktype": "manhua", "sub": "149", "id": "29", "image": "https://masterku.github.io/jwtamb/pjw3/pjw3029.jpg", "nama": "Episod 29" },
        { "komiktype": "manhua", "sub": "149", "id": "30", "image": "https://masterku.github.io/jwtamb/pjw3/pjw3030.jpg", "nama": "Episod 30" },
        { "komiktype": "manhua", "sub": "149", "id": "31", "image": "https://masterku.github.io/jwtamb/pjw3/pjw3031.jpg", "nama": "Episod 31" },
        { "komiktype": "manhua", "sub": "149", "id": "32", "image": "https://masterku.github.io/jwtamb/pjw3/pjw3032.jpg", "nama": "Episod 32" },
        { "komiktype": "manhua", "sub": "149", "id": "33", "image": "https://masterku.github.io/jwtamb/pjw3/pjw3033.jpg", "nama": "Episod 33" },
        { "komiktype": "manhua", "sub": "149", "id": "34", "image": "https://masterku.github.io/jwtamb/pjw3/pjw3034.jpg", "nama": "Episod 34" },
        { "komiktype": "manhua", "sub": "149", "id": "35", "image": "https://masterku.github.io/jwtamb/pjw3/pjw3035.jpg", "nama": "Episod 35" },
        { "komiktype": "manhua", "sub": "149", "id": "36", "image": "https://masterku.github.io/jwtamb/pjw3/pjw3036.jpg", "nama": "Episod 36" },
        { "komiktype": "manhua", "sub": "149", "id": "37", "image": "https://masterku.github.io/jwtamb/pjw3/pjw3037.jpg", "nama": "Episod 37" },
        { "komiktype": "manhua", "sub": "149", "id": "38", "image": "https://masterku.github.io/jwtamb/pjw3/pjw3038.jpg", "nama": "Episod 38" },
        { "komiktype": "manhua", "sub": "149", "id": "39", "image": "https://masterku.github.io/jwtamb/pjw3/pjw3039.jpg", "nama": "Episod 39" },
        { "komiktype": "manhua", "sub": "149", "id": "40", "image": "https://masterku.github.io/jwtamb/pjw3/pjw3040.jpg", "nama": "Episod 40" },
        { "komiktype": "manhua", "sub": "149", "id": "41", "image": "https://masterku.github.io/jwtamb/pjw3/pjw3041.jpg", "nama": "Episod 41" },
        { "komiktype": "manhua", "sub": "149", "id": "42", "image": "https://masterku.github.io/jwtamb/pjw3/pjw3042.jpg", "nama": "Episod 42" },
        { "komiktype": "manhua", "sub": "149", "id": "43", "image": "https://masterku.github.io/jwtamb/pjw3/pjw3043.jpg", "nama": "Episod 43" },
        { "komiktype": "manhua", "sub": "149", "id": "44", "image": "https://masterku.github.io/jwtamb/pjw3/pjw3044.jpg", "nama": "Episod 44" },
        { "komiktype": "manhua", "sub": "149", "id": "45", "image": "https://masterku.github.io/jwtamb/pjw3/pjw3045.jpg", "nama": "Episod 45" },
        { "komiktype": "manhua", "sub": "149", "id": "46", "image": "https://masterku.github.io/jwtamb/pjw3/pjw3046.jpg", "nama": "Episod 46" },
        { "komiktype": "manhua", "sub": "149", "id": "47", "image": "https://masterku.github.io/jwtamb/pjw3/pjw3047.jpg", "nama": "Episod 47" },
        { "komiktype": "manhua", "sub": "149", "id": "48", "image": "https://masterku.github.io/jwtamb/pjw3/pjw3048.jpg", "nama": "Episod 48" },
        { "komiktype": "manhua", "sub": "149", "id": "49", "image": "https://masterku.github.io/jwtamb/pjw3/pjw3049.jpg", "nama": "Episod 49" },
        { "komiktype": "manhua", "sub": "149", "id": "50", "image": "https://masterku.github.io/jwtamb/pjw3/pjw3050.jpg", "nama": "Episod 50" },
        { "komiktype": "manhua", "sub": "149", "id": "51", "image": "https://masterku.github.io/jwtamb/pjw3/pjw3051.jpg", "nama": "Episod 51" },
        { "komiktype": "manhua", "sub": "149", "id": "52", "image": "https://masterku.github.io/jwtamb/pjw3/pjw3052.jpg", "nama": "Episod 52" },
        { "komiktype": "manhua", "sub": "149", "id": "53", "image": "https://masterku.github.io/jwtamb/pjw3/pjw3053.jpg", "nama": "Episod 53" },
        { "komiktype": "manhua", "sub": "149", "id": "54", "image": "https://masterku.github.io/jwtamb/pjw3/pjw3054.jpg", "nama": "Episod 54" },
        { "komiktype": "manhua", "sub": "149", "id": "55", "image": "https://masterku.github.io/jwtamb/pjw3/pjw3055.jpg", "nama": "Episod 55" },
        { "komiktype": "manhua", "sub": "149", "id": "56", "image": "https://masterku.github.io/jwtamb/pjw3/pjw3056.jpg", "nama": "Episod 56" },
        { "komiktype": "manhua", "sub": "149", "id": "57", "image": "https://masterku.github.io/jwtamb/pjw3/pjw3057.jpg", "nama": "Episod 57" },
        { "komiktype": "manhua", "sub": "149", "id": "58", "image": "https://masterku.github.io/jwtamb/pjw3/pjw3058.jpg", "nama": "Episod 58" },
        { "komiktype": "manhua", "sub": "149", "id": "59", "image": "https://masterku.github.io/jwtamb/pjw3/pjw3059.jpg", "nama": "Episod 59" },
        { "komiktype": "manhua", "sub": "149", "id": "60", "image": "https://masterku.github.io/jwtamb/pjw3/pjw3060.jpg", "nama": "Episod 60" },
        { "komiktype": "manhua", "sub": "149", "id": "61", "image": "https://masterku.github.io/jwtamb/pjw3/pjw3061.jpg", "nama": "Episod 61" },
        { "komiktype": "manhua", "sub": "149", "id": "62", "image": "https://masterku.github.io/jwtamb/pjw3/pjw3062.jpg", "nama": "Episod 62" },
        { "komiktype": "manhua", "sub": "149", "id": "63", "image": "https://masterku.github.io/jwtamb/pjw3/pjw3063.jpg", "nama": "Episod 63" },
        { "komiktype": "manhua", "sub": "149", "id": "64", "image": "https://masterku.github.io/jwtamb/pjw3/pjw3064.jpg", "nama": "Episod 64" },
        { "komiktype": "manhua", "sub": "149", "id": "65", "image": "https://masterku.github.io/jwtamb/pjw3/pjw3065.jpg", "nama": "Episod 65" },
        { "komiktype": "manhua", "sub": "149", "id": "66", "image": "https://masterku.github.io/jwtamb/pjw3/pjw3066.jpg", "nama": "Episod 66" },
        { "komiktype": "manhua", "sub": "149", "id": "67", "image": "https://masterku.github.io/jwtamb/pjw3/pjw3067.jpg", "nama": "Episod 67" },
        { "komiktype": "manhua", "sub": "149", "id": "68", "image": "https://masterku.github.io/jwtamb/pjw3/pjw3068.jpg", "nama": "Episod 68" },
        { "komiktype": "manhua", "sub": "149", "id": "69", "image": "https://masterku.github.io/jwtamb/pjw3/pjw3069.jpg", "nama": "Episod 69" },
        { "komiktype": "manhua", "sub": "149", "id": "70", "image": "https://masterku.github.io/jwtamb/pjw3/pjw3070.jpg", "nama": "Episod 70" },
        { "komiktype": "manhua", "sub": "149", "id": "71", "image": "https://masterku.github.io/jwtamb/pjw3/pjw3071.jpg", "nama": "Episod 71" },
        { "komiktype": "manhua", "sub": "149", "id": "72", "image": "https://masterku.github.io/jwtamb/pjw3/pjw3072.jpg", "nama": "Episod 72" },
        { "komiktype": "manhua", "sub": "149", "id": "73", "image": "https://masterku.github.io/jwtamb/pjw3/pjw3073.jpg", "nama": "Episod 73" },
        { "komiktype": "manhua", "sub": "149", "id": "74", "image": "https://masterku.github.io/jwtamb/pjw3/pjw3074.jpg", "nama": "Episod 74" },
        { "komiktype": "manhua", "sub": "149", "id": "75", "image": "https://masterku.github.io/jwtamb/pjw3/pjw3075.jpg", "nama": "Episod 75" },
        { "komiktype": "manhua", "sub": "149", "id": "76", "image": "https://masterku.github.io/jwtamb/pjw3/pjw3076.jpg", "nama": "Episod 76" },
        { "komiktype": "manhua", "sub": "149", "id": "77", "image": "https://masterku.github.io/jwtamb/pjw3/pjw3077.jpg", "nama": "Episod 77" },
        { "komiktype": "manhua", "sub": "149", "id": "78", "image": "https://masterku.github.io/jwtamb/pjw3/pjw3078.jpg", "nama": "Episod 78" },
        { "komiktype": "manhua", "sub": "149", "id": "79", "image": "https://masterku.github.io/jwtamb/pjw3/pjw3079.jpg", "nama": "Episod 79" },
        { "komiktype": "manhua", "sub": "149", "id": "80", "image": "https://masterku.github.io/jwtamb/pjw3/pjw3080.jpg", "nama": "Episod 80" },
        { "komiktype": "manhua", "sub": "149", "id": "81", "image": "https://masterku.github.io/jwtamb/pjw3/pjw3081.jpg", "nama": "Episod 81" },
        { "komiktype": "manhua", "sub": "149", "id": "82", "image": "https://masterku.github.io/jwtamb/pjw3/pjw3081.jpg", "nama": "Episod 82" },
        { "komiktype": "manhua", "sub": "149", "id": "83", "image": "https://masterku.github.io/jwtamb/pjw3/pjw3083.jpg", "nama": "Episod 83" },
        { "komiktype": "manhua", "sub": "149", "id": "84", "image": "https://masterku.github.io/jwtamb/pjw3/pjw3084.jpg", "nama": "Episod 84" },
        { "komiktype": "manhua", "sub": "149", "id": "85", "image": "https://masterku.github.io/jwtamb/pjw3/pjw3085.jpg", "nama": "Episod 85" },
        { "komiktype": "manhua", "sub": "149", "id": "86", "image": "https://masterku.github.io/jwtamb/pjw3/pjw3086.jpg", "nama": "Episod 86" },
        { "komiktype": "manhua", "sub": "149", "id": "87", "image": "https://masterku.github.io/jwtamb/pjw3/pjw3087.jpg", "nama": "Episod 87" },
        { "komiktype": "manhua", "sub": "149", "id": "88", "image": "https://masterku.github.io/jwtamb/pjw3/pjw3088.jpg", "nama": "Episod 88" },
        { "komiktype": "manhua", "sub": "149", "id": "89", "image": "https://masterku.github.io/jwtamb/pjw3/pjw3089.jpg", "nama": "Episod 89" },
        { "komiktype": "manhua", "sub": "149", "id": "90", "image": "https://masterku.github.io/jwtamb/pjw3/pjw3090.jpg", "nama": "Episod 90" },
        { "komiktype": "manhua", "sub": "149", "id": "91", "image": "https://masterku.github.io/jwtamb/pjw3/pjw3091.jpg", "nama": "Episod 91" },
        { "komiktype": "manhua", "sub": "149", "id": "92", "image": "https://masterku.github.io/jwtamb/pjw3/pjw3092.jpg", "nama": "Episod 92" },
        { "komiktype": "manhua", "sub": "149", "id": "93", "image": "https://masterku.github.io/jwtamb/pjw3/pjw3093.jpg", "nama": "Episod 93" },
        { "komiktype": "manhua", "sub": "149", "id": "94", "image": "https://masterku.github.io/jwtamb/pjw3/pjw3094.jpg", "nama": "Episod 94" },
        { "komiktype": "manhua", "sub": "149", "id": "95", "image": "https://masterku.github.io/jwtamb/pjw3/pjw3095.jpg", "nama": "Episod 95" },
        { "komiktype": "manhua", "sub": "149", "id": "96", "image": "https://masterku.github.io/jwtamb/pjw3/pjw3096.jpg", "nama": "Episod 96" },
        { "komiktype": "manhua", "sub": "149", "id": "97", "image": "https://masterku.github.io/jwtamb/pjw3/pjw3097.jpg", "nama": "Episod 97" },
        { "komiktype": "manhua", "sub": "149", "id": "98", "image": "https://masterku.github.io/jwtamb/pjw3/pjw3098.jpg", "nama": "Episod 98" },
        { "komiktype": "manhua", "sub": "149", "id": "99", "image": "https://masterku.github.io/jwtamb/pjw3/pjw3099.jpg", "nama": "Episod 99" },
        { "komiktype": "manhua", "sub": "149", "id": "100", "image": "https://masterku.github.io/jwtamb/pjw3/pjw3100.jpg", "nama": "Episod 100" }        
    ]
}