{"aaData":[
    {"image":"https://masterku.github.io/ap6/main29/RRS07/cyclonmaster.blogspot.com001.jpg","id":1},
    {"image":"https://masterku.github.io/ap6/main29/RRS07/cyclonmaster.blogspot.com002.jpg","id":2},
    {"image":"https://masterku.github.io/ap6/main29/RRS07/cyclonmaster.blogspot.com003.jpg","id":3},
    {"image":"https://masterku.github.io/ap6/main29/RRS07/cyclonmaster.blogspot.com004.jpg","id":4},
    {"image":"https://masterku.github.io/ap6/main29/RRS07/cyclonmaster.blogspot.com005.jpg","id":5},
    {"image":"https://masterku.github.io/ap6/main29/RRS07/cyclonmaster.blogspot.com006.jpg","id":6},
    {"image":"https://masterku.github.io/ap6/main29/RRS07/cyclonmaster.blogspot.com007.jpg","id":7},
    {"image":"https://masterku.github.io/ap6/main29/RRS07/cyclonmaster.blogspot.com008.jpg","id":8},
    {"image":"https://masterku.github.io/ap6/main29/RRS07/cyclonmaster.blogspot.com009.jpg","id":9},
    {"image":"https://masterku.github.io/ap6/main29/RRS07/cyclonmaster.blogspot.com010.jpg","id":10},
    {"image":"https://masterku.github.io/ap6/main29/RRS07/cyclonmaster.blogspot.com011.jpg","id":11},
    {"image":"https://masterku.github.io/ap6/main29/RRS07/cyclonmaster.blogspot.com012.jpg","id":12},
    {"image":"https://masterku.github.io/ap6/main29/RRS07/cyclonmaster.blogspot.com013.jpg","id":13},
    {"image":"https://masterku.github.io/ap6/main29/RRS07/cyclonmaster.blogspot.com014.jpg","id":14},
    {"image":"https://masterku.github.io/ap6/main29/RRS07/cyclonmaster.blogspot.com015.jpg","id":15},
    {"image":"https://masterku.github.io/ap6/main29/RRS07/cyclonmaster.blogspot.com016.jpg","id":16},
    {"image":"https://masterku.github.io/ap6/main29/RRS07/cyclonmaster.blogspot.com017.jpg","id":17},
    {"image":"https://masterku.github.io/ap6/main29/RRS07/cyclonmaster.blogspot.com018.jpg","id":18},
    {"image":"https://masterku.github.io/ap6/main29/RRS07/cyclonmaster.blogspot.com019.jpg","id":19},
    {"image":"https://masterku.github.io/ap6/main29/RRS07/cyclonmaster.blogspot.com020.jpg","id":20},
    {"image":"https://masterku.github.io/ap6/main29/RRS07/cyclonmaster.blogspot.com021.jpg","id":21},
    {"image":"https://masterku.github.io/ap6/main29/RRS07/cyclonmaster.blogspot.com022.jpg","id":22},
    {"image":"https://masterku.github.io/ap6/main29/RRS07/cyclonmaster.blogspot.com023.jpg","id":23},
    {"image":"https://masterku.github.io/ap6/main29/RRS07/cyclonmaster.blogspot.com024.jpg","id":24},
    {"image":"https://masterku.github.io/ap6/main29/RRS07/cyclonmaster.blogspot.com025.jpg","id":25},
    {"image":"https://masterku.github.io/ap6/main29/RRS07/cyclonmaster.blogspot.com026.jpg","id":26},
    {"image":"https://masterku.github.io/ap6/main29/RRS07/cyclonmaster.blogspot.com027.jpg","id":27},
    {"image":"https://masterku.github.io/ap6/main29/RRS07/cyclonmaster.blogspot.com028.jpg","id":28},
    {"image":"https://masterku.github.io/ap6/main29/RRS07/cyclonmaster.blogspot.com029.jpg","id":29},
    {"image":"https://masterku.github.io/ap6/main29/RRS07/cyclonmaster.blogspot.com030.jpg","id":30},
    {"image":"https://masterku.github.io/ap6/main29/RRS07/cyclonmaster.blogspot.com031.jpg","id":31},
    {"image":"https://masterku.github.io/ap6/main29/RRS07/cyclonmaster.blogspot.com032.jpg","id":32},
    {"image":"https://masterku.github.io/ap6/main29/RRS07/cyclonmaster.blogspot.com033.jpg","id":33},
    {"image":"https://masterku.github.io/ap6/main29/RRS07/cyclonmaster.blogspot.com034.jpg","id":34},
    {"image":"https://masterku.github.io/ap6/main29/RRS07/cyclonmaster.blogspot.com035.jpg","id":35},
    {"image":"https://masterku.github.io/ap6/main29/RRS07/cyclonmaster.blogspot.com036.jpg","id":36},
    {"image":"https://masterku.github.io/ap6/main29/RRS07/cyclonmaster.blogspot.com037.jpg","id":37},
    {"image":"https://masterku.github.io/ap6/main29/RRS07/cyclonmaster.blogspot.com038.jpg","id":38},
    {"image":"https://masterku.github.io/ap6/main29/RRS07/cyclonmaster.blogspot.com039.jpg","id":39},
    {"image":"https://masterku.github.io/ap6/main29/RRS07/cyclonmaster.blogspot.com040.jpg","id":40},
    {"image":"https://masterku.github.io/ap6/main29/RRS07/cyclonmaster.blogspot.com041.jpg","id":41},
    {"image":"https://masterku.github.io/ap6/main29/RRS07/cyclonmaster.blogspot.com042.jpg","id":42},
    {"image":"https://masterku.github.io/ap6/main29/RRS07/cyclonmaster.blogspot.com043.jpg","id":43},
    {"image":"https://masterku.github.io/ap6/main29/RRS07/cyclonmaster.blogspot.com044.jpg","id":44},
    {"image":"https://masterku.github.io/ap6/main29/RRS07/cyclonmaster.blogspot.com045.jpg","id":45},
    {"image":"https://masterku.github.io/ap6/main29/RRS07/cyclonmaster.blogspot.com046.jpg","id":46},
    {"image":"https://masterku.github.io/ap6/main29/RRS07/cyclonmaster.blogspot.com047.jpg","id":47},
    {"image":"https://masterku.github.io/ap6/main29/RRS07/cyclonmaster.blogspot.com048.jpg","id":48},
    {"image":"https://masterku.github.io/ap6/main29/RRS07/cyclonmaster.blogspot.com049.jpg","id":49},
	{"image":"https://masterku.github.io/ap6/main29/RRS07/cyclonmaster.blogspot.com050.jpg","id":50},
	{"image":"https://masterku.github.io/ap6/main29/RRS07/cyclonmaster.blogspot.com051.jpg","id":51},
    {"image":"https://masterku.github.io/ap6/main29/RRS07/cyclonmaster.blogspot.com052.jpg","id":52},
    {"image":"https://masterku.github.io/ap6/main29/RRS07/cyclonmaster.blogspot.com053.jpg","id":53},
    {"image":"https://masterku.github.io/ap6/main29/RRS07/cyclonmaster.blogspot.com054.jpg","id":54},
    {"image":"https://masterku.github.io/ap6/main29/RRS07/cyclonmaster.blogspot.com055.jpg","id":55},
    {"image":"https://masterku.github.io/ap6/main29/RRS07/cyclonmaster.blogspot.com056.jpg","id":56},
    {"image":"https://masterku.github.io/ap6/main29/RRS07/cyclonmaster.blogspot.com057.jpg","id":57},
    {"image":"https://masterku.github.io/ap6/main29/RRS07/cyclonmaster.blogspot.com058.jpg","id":58},
    {"image":"https://masterku.github.io/ap6/main29/RRS07/cyclonmaster.blogspot.com059.jpg","id":59},
    {"image":"https://masterku.github.io/ap6/main29/RRS07/cyclonmaster.blogspot.com060.jpg","id":60},
    {"image":"https://masterku.github.io/ap6/main29/RRS07/cyclonmaster.blogspot.com061.jpg","id":61},
    {"image":"https://masterku.github.io/ap6/main29/RRS07/cyclonmaster.blogspot.com062.jpg","id":62},
    {"image":"https://masterku.github.io/ap6/main29/RRS07/cyclonmaster.blogspot.com063.jpg","id":63},
    {"image":"https://masterku.github.io/ap6/main29/RRS07/cyclonmaster.blogspot.com064.jpg","id":64},
    {"image":"https://masterku.github.io/ap6/main29/RRS07/cyclonmaster.blogspot.com065.jpg","id":65},
    {"image":"https://masterku.github.io/ap6/main29/RRS07/cyclonmaster.blogspot.com066.jpg","id":66},
    {"image":"https://masterku.github.io/ap6/main29/RRS07/cyclonmaster.blogspot.com067.jpg","id":67},
    {"image":"https://masterku.github.io/ap6/main29/RRS07/cyclonmaster.blogspot.com068.jpg","id":68},
    {"image":"https://masterku.github.io/ap6/main29/RRS07/cyclonmaster.blogspot.com069.jpg","id":69},
    {"image":"https://masterku.github.io/ap6/main29/RRS07/cyclonmaster.blogspot.com070.jpg","id":70},
    {"image":"https://masterku.github.io/ap6/main29/RRS07/cyclonmaster.blogspot.com071.jpg","id":71},
    {"image":"https://masterku.github.io/ap6/main29/RRS07/cyclonmaster.blogspot.com072.jpg","id":72},
    {"image":"https://masterku.github.io/ap6/main29/RRS07/cyclonmaster.blogspot.com073.jpg","id":73},
    {"image":"https://masterku.github.io/ap6/main29/RRS07/cyclonmaster.blogspot.com074.jpg","id":74},
    {"image":"https://masterku.github.io/ap6/main29/RRS07/cyclonmaster.blogspot.com075.jpg","id":75},
    {"image":"https://masterku.github.io/ap6/main29/RRS07/cyclonmaster.blogspot.com076.jpg","id":76},
    {"image":"https://masterku.github.io/ap6/main29/RRS07/cyclonmaster.blogspot.com077.jpg","id":77},
    {"image":"https://masterku.github.io/ap6/main29/RRS07/cyclonmaster.blogspot.com078.jpg","id":78},
    {"image":"https://masterku.github.io/ap6/main29/RRS07/cyclonmaster.blogspot.com079.jpg","id":79},
    {"image":"https://masterku.github.io/ap6/main29/RRS07/cyclonmaster.blogspot.com080.jpg","id":80},
    {"image":"https://masterku.github.io/ap6/main29/RRS07/cyclonmaster.blogspot.com081.jpg","id":81},
    {"image":"https://masterku.github.io/ap6/main29/RRS07/cyclonmaster.blogspot.com082.jpg","id":82},
    {"image":"https://masterku.github.io/ap6/main29/RRS07/cyclonmaster.blogspot.com083.jpg","id":83},
    {"image":"https://masterku.github.io/ap6/main29/RRS07/cyclonmaster.blogspot.com084.jpg","id":84},
    {"image":"https://masterku.github.io/ap6/main29/RRS07/cyclonmaster.blogspot.com085.jpg","id":85},
    {"image":"https://masterku.github.io/ap6/main29/RRS07/cyclonmaster.blogspot.com086.jpg","id":86},
    {"image":"https://masterku.github.io/ap6/main29/RRS07/cyclonmaster.blogspot.com087.jpg","id":87},
    {"image":"https://masterku.github.io/ap6/main29/RRS07/cyclonmaster.blogspot.com088.jpg","id":88},
    {"image":"https://masterku.github.io/ap6/main29/RRS07/cyclonmaster.blogspot.com089.jpg","id":89},
    {"image":"https://masterku.github.io/ap6/main29/RRS07/cyclonmaster.blogspot.com090.jpg","id":90},
    {"image":"https://masterku.github.io/ap6/main29/RRS07/cyclonmaster.blogspot.com091.jpg","id":91},
    {"image":"https://masterku.github.io/ap6/main29/RRS07/cyclonmaster.blogspot.com092.jpg","id":92},
    {"image":"https://masterku.github.io/ap6/main29/RRS07/cyclonmaster.blogspot.com093.jpg","id":93},
    {"image":"https://masterku.github.io/ap6/main29/RRS07/cyclonmaster.blogspot.com094.jpg","id":94},
    {"image":"https://masterku.github.io/ap6/main29/RRS07/cyclonmaster.blogspot.com095.jpg","id":95},
    {"image":"https://masterku.github.io/ap6/main29/RRS07/cyclonmaster.blogspot.com096.jpg","id":96},
    {"image":"https://masterku.github.io/ap6/main29/RRS07/cyclonmaster.blogspot.com097.jpg","id":97},
    {"image":"https://masterku.github.io/ap6/main29/RRS07/cyclonmaster.blogspot.com098.jpg","id":98},
    {"image":"https://masterku.github.io/ap6/main29/RRS07/cyclonmaster.blogspot.com099.jpg","id":99},
	{"image":"https://masterku.github.io/ap6/main29/RRS07/cyclonmaster.blogspot.com100.jpg","id":100},
	{"image":"https://masterku.github.io/ap6/main29/RRS07/cyclonmaster.blogspot.com101.jpg","id":101},
    {"image":"https://masterku.github.io/ap6/main29/RRS07/cyclonmaster.blogspot.com102.jpg","id":102},
    {"image":"https://masterku.github.io/ap6/main29/RRS07/cyclonmaster.blogspot.com103.jpg","id":103}
]}