{
    "aaData": [
        { "komiktype": "manhua", "sub": "32", "id": "1", "image": "resources/images/main32/tphs01.jpg", "nama": "Episode 01" },
        { "komiktype": "manhua", "sub": "32", "id": "2", "image": "resources/images/main32/tphs02.jpg", "nama": "Episode 02" },
        { "komiktype": "manhua", "sub": "32", "id": "3", "image": "resources/images/main32/tphs03.jpg", "nama": "Episode 03" },
        { "komiktype": "manhua", "sub": "32", "id": "4", "image": "resources/images/main32/tphs04.jpg", "nama": "Episode 04" },
        { "komiktype": "manhua", "sub": "32", "id": "5", "image": "resources/images/main32/tphs05.jpg", "nama": "Episode 05" },
        { "komiktype": "manhua", "sub": "32", "id": "6", "image": "resources/images/main32/tphs06.jpg", "nama": "Episode 06" },
        { "komiktype": "manhua", "sub": "32", "id": "7", "image": "resources/images/main32/tphs07.jpg", "nama": "Episode 07" },
        { "komiktype": "manhua", "sub": "32", "id": "8", "image": "resources/images/main32/tphs08.jpg", "nama": "Episode 08" },
        { "komiktype": "manhua", "sub": "32", "id": "9", "image": "resources/images/main32/tphs09.jpg", "nama": "Episode 09" },
        { "komiktype": "manhua", "sub": "32", "id": "10", "image": "resources/images/main32/tphs09.jpg", "nama": "Episode 10" },
        { "komiktype": "manhua", "sub": "32", "id": "11", "image": "resources/images/main32/tphs11.jpg", "nama": "Episode 11" },
        { "komiktype": "manhua", "sub": "32", "id": "12", "image": "resources/images/main32/tphs12.jpg", "nama": "Episode 12" },
        { "komiktype": "manhua", "sub": "32", "id": "13", "image": "resources/images/main32/tphs13.jpg", "nama": "Episode 13" },
        { "komiktype": "manhua", "sub": "32", "id": "14", "image": "resources/images/main32/tphs14.jpg", "nama": "Episode 14" },
        { "komiktype": "manhua", "sub": "32", "id": "15", "image": "resources/images/main32/tphs15.jpg", "nama": "Episode 15" },
        { "komiktype": "manhua", "sub": "32", "id": "16", "image": "resources/images/main32/tphs16.jpg", "nama": "Episode 16" },
        { "komiktype": "manhua", "sub": "32", "id": "17", "image": "resources/images/main32/tphs17.jpg", "nama": "Episode 17" },
        { "komiktype": "manhua", "sub": "32", "id": "18", "image": "resources/images/main32/tphs18.jpg", "nama": "Episode 18" },
        { "komiktype": "manhua", "sub": "32", "id": "19", "image": "resources/images/main32/tphs19.jpg", "nama": "Episode 19" },
        { "komiktype": "manhua", "sub": "32", "id": "20", "image": "resources/images/main32/tphs20.jpg", "nama": "Episode 20" },
        { "komiktype": "manhua", "sub": "32", "id": "21", "image": "resources/images/main32/tphs21.jpg", "nama": "Episode 21" },
        { "komiktype": "manhua", "sub": "32", "id": "22", "image": "resources/images/main32/tphs22.jpg", "nama": "Episode 22" },
        { "komiktype": "manhua", "sub": "32", "id": "23", "image": "resources/images/main32/tphs23.jpg", "nama": "Episode 23" },
        { "komiktype": "manhua", "sub": "32", "id": "24", "image": "resources/images/main32/tphs24.jpg", "nama": "Episode 24" },
        { "komiktype": "manhua", "sub": "32", "id": "25", "image": "resources/images/main32/tphs25.jpg", "nama": "Episode 25" },
        { "komiktype": "manhua", "sub": "32", "id": "26", "image": "resources/images/main32/tphs26.jpg", "nama": "Episode 26" },
        { "komiktype": "manhua", "sub": "32", "id": "27", "image": "resources/images/main32/tphs27.jpg", "nama": "Episode 27" },
        { "komiktype": "manhua", "sub": "32", "id": "28", "image": "resources/images/main32/tphs28.jpg", "nama": "Episode 28" },
        { "komiktype": "manhua", "sub": "32", "id": "29", "image": "resources/images/main32/tphs29.jpg", "nama": "Episode 29" },
        { "komiktype": "manhua", "sub": "32", "id": "30", "image": "resources/images/main32/tphs30.jpg", "nama": "Episode 30" },
        { "komiktype": "manhua", "sub": "32", "id": "31", "image": "resources/images/main32/tphs31.jpg", "nama": "Episode 31" },
        { "komiktype": "manhua", "sub": "32", "id": "32", "image": "resources/images/main32/tphs32.jpg", "nama": "Episode 32" },
        { "komiktype": "manhua", "sub": "32", "id": "33", "image": "resources/images/main32/tphs33.jpg", "nama": "Episode 33" },
        { "komiktype": "manhua", "sub": "32", "id": "34", "image": "resources/images/main32/tphs34.jpg", "nama": "Episode 34" },
        { "komiktype": "manhua", "sub": "32", "id": "35", "image": "resources/images/main32/tphs35.jpg", "nama": "Episode 35" },
        { "komiktype": "manhua", "sub": "32", "id": "36", "image": "resources/images/main32/tphs36.jpg", "nama": "Episode 36" },
        { "komiktype": "manhua", "sub": "32", "id": "37", "image": "resources/images/main32/tphs37.jpg", "nama": "Episode 37" },
        { "komiktype": "manhua", "sub": "32", "id": "38", "image": "resources/images/main32/tphs38.jpg", "nama": "Episode 38" },
        { "komiktype": "manhua", "sub": "32", "id": "39", "image": "resources/images/main32/tphs39.jpg", "nama": "Episode 39" },
        { "komiktype": "manhua", "sub": "32", "id": "40", "image": "resources/images/main32/tphs40.jpg", "nama": "Episode 40" },
        { "komiktype": "manhua", "sub": "32", "id": "41", "image": "resources/images/main32/tphs41.jpg", "nama": "Episode 41" },
        { "komiktype": "manhua", "sub": "32", "id": "42", "image": "resources/images/main32/tphs42.jpg", "nama": "Episode 42" },
        { "komiktype": "manhua", "sub": "32", "id": "43", "image": "resources/images/main32/tphs43.jpg", "nama": "Episode 43" },
        { "komiktype": "manhua", "sub": "32", "id": "44", "image": "resources/images/main32/tphs44.jpg", "nama": "Episode 44" },
        { "komiktype": "manhua", "sub": "32", "id": "45", "image": "resources/images/main32/tphs45.jpg", "nama": "Episode 45" },
        { "komiktype": "manhua", "sub": "32", "id": "46", "image": "resources/images/main32/tphs46.jpg", "nama": "Episode 46" },
        { "komiktype": "manhua", "sub": "32", "id": "47", "image": "resources/images/main32/tphs47.jpg", "nama": "Episode 47" },
        { "komiktype": "manhua", "sub": "32", "id": "48", "image": "resources/images/main32/tphs48.jpg", "nama": "Episode 48" },
        { "komiktype": "manhua", "sub": "32", "id": "49", "image": "resources/images/main32/tphs49.jpg", "nama": "Episode 49" },
        { "komiktype": "manhua", "sub": "32", "id": "50", "image": "resources/images/main32/tphs50.jpg", "nama": "Episode 50" },
        { "komiktype": "manhua", "sub": "32", "id": "51", "image": "resources/images/main32/tphs51.jpg", "nama": "Episode 51" },
        { "komiktype": "manhua", "sub": "32", "id": "52", "image": "resources/images/main32/tphs52.jpg", "nama": "Episode 52" },
        { "komiktype": "manhua", "sub": "32", "id": "53", "image": "resources/images/main32/tphs53.jpg", "nama": "Episode 53" },
        { "komiktype": "manhua", "sub": "32", "id": "54", "image": "resources/images/main32/tphs54.jpg", "nama": "Episode 54" },
        { "komiktype": "manhua", "sub": "32", "id": "55", "image": "resources/images/main32/tphs55.jpg", "nama": "Episode 55" },
        { "komiktype": "manhua", "sub": "32", "id": "56", "image": "resources/images/main32/tphs56.jpg", "nama": "Episode 56" },
        { "komiktype": "manhua", "sub": "32", "id": "57", "image": "resources/images/main32/tphs57.jpg", "nama": "Episode 57" },
        { "komiktype": "manhua", "sub": "32", "id": "58", "image": "resources/images/main32/tphs58.jpg", "nama": "Episode 58" },
        { "komiktype": "manhua", "sub": "32", "id": "59", "image": "resources/images/main32/tphs59.jpg", "nama": "Episode 59" },
        { "komiktype": "manhua", "sub": "32", "id": "60", "image": "resources/images/main32/tphs60.jpg", "nama": "Episode 60" },
        { "komiktype": "manhua", "sub": "32", "id": "61", "image": "resources/images/main32/tphs61.jpg", "nama": "Episode 61" },
        { "komiktype": "manhua", "sub": "32", "id": "62", "image": "resources/images/main32/tphs62.jpg", "nama": "Episode 62" },
        { "komiktype": "manhua", "sub": "32", "id": "63", "image": "resources/images/main32/tphs63.jpg", "nama": "Episode 63" },
        { "komiktype": "manhua", "sub": "32", "id": "64", "image": "resources/images/main32/tphs64.jpg", "nama": "Episode 64" },
        { "komiktype": "manhua", "sub": "32", "id": "65", "image": "resources/images/main32/tphs65.jpg", "nama": "Episode 65" },
        { "komiktype": "manhua", "sub": "32", "id": "66", "image": "resources/images/main32/tphs66.jpg", "nama": "Episode 66" },
        { "komiktype": "manhua", "sub": "32", "id": "67", "image": "resources/images/main32/tphs67.jpg", "nama": "Episode 67" },
        { "komiktype": "manhua", "sub": "32", "id": "68", "image": "resources/images/main32/tphs68.jpg", "nama": "Episode 68" },
        { "komiktype": "manhua", "sub": "32", "id": "69", "image": "resources/images/main32/tphs69.jpg", "nama": "Episode 69" },
        { "komiktype": "manhua", "sub": "32", "id": "70", "image": "resources/images/main32/tphs70.jpg", "nama": "Episode 70" },
		{ "komiktype": "manhua", "sub": "32", "id": "71", "image": "resources/images/main32/tphs71.jpg", "nama": "Episode 71" },
        { "komiktype": "manhua", "sub": "32", "id": "72", "image": "resources/images/main32/tphs72.jpg", "nama": "Episode 72" },
        { "komiktype": "manhua", "sub": "32", "id": "73", "image": "resources/images/main32/tphs73.jpg", "nama": "Episode 73" },
        { "komiktype": "manhua", "sub": "32", "id": "74", "image": "resources/images/main32/tphs74.jpg", "nama": "Episode 74" },
        { "komiktype": "manhua", "sub": "32", "id": "75", "image": "resources/images/main32/tphs75.jpg", "nama": "Episode 75" },
        { "komiktype": "manhua", "sub": "32", "id": "76", "image": "resources/images/main32/tphs76.jpg", "nama": "Episode 76" },
        { "komiktype": "manhua", "sub": "32", "id": "77", "image": "resources/images/main32/tphs77.jpg", "nama": "Episode 77" },
        { "komiktype": "manhua", "sub": "32", "id": "78", "image": "resources/images/main32/tphs78.jpg", "nama": "Episode 78" },
        { "komiktype": "manhua", "sub": "32", "id": "79", "image": "resources/images/main32/tphs79.jpg", "nama": "Episode 79" },
        { "komiktype": "manhua", "sub": "32", "id": "80", "image": "resources/images/main32/tphs80.jpg", "nama": "Episode 80" },
		{ "komiktype": "manhua", "sub": "32", "id": "81", "image": "resources/images/main32/tphs81.jpg", "nama": "Episode 81" },
        { "komiktype": "manhua", "sub": "32", "id": "82", "image": "resources/images/main32/tphs82.jpg", "nama": "Episode 82" },
        { "komiktype": "manhua", "sub": "32", "id": "83", "image": "resources/images/main32/tphs83.jpg", "nama": "Episode 83" },
        { "komiktype": "manhua", "sub": "32", "id": "84", "image": "resources/images/main32/tphs84.jpg", "nama": "Episode 84" },
        { "komiktype": "manhua", "sub": "32", "id": "85", "image": "resources/images/main32/tphs85.jpg", "nama": "Episode 85" },
        { "komiktype": "manhua", "sub": "32", "id": "86", "image": "resources/images/main32/tphs86.jpg", "nama": "Episode 86" }
    ]
}