{
    "aaData": [
        { "komiktype": "manhua", "sub": "120", "id": "1", "image": "https://masterku.github.io/svckofmi/kofmi01.jpg", "nama": "Episod 01" },
        { "komiktype": "manhua", "sub": "120", "id": "2", "image": "https://masterku.github.io/svckofmi/kofmi02.jpg", "nama": "Episod 02" },
        { "komiktype": "manhua", "sub": "120", "id": "3", "image": "https://masterku.github.io/svckofmi/kofmi03.jpg", "nama": "Episod 03" },
        { "komiktype": "manhua", "sub": "120", "id": "4", "image": "https://masterku.github.io/svckofmi/kofmi04.jpg", "nama": "Episod 04" },
        { "komiktype": "manhua", "sub": "120", "id": "5", "image": "https://masterku.github.io/svckofmi/kofmi05.jpg", "nama": "Episod 05" },
        { "komiktype": "manhua", "sub": "120", "id": "6", "image": "https://masterku.github.io/svckofmi/kofmi06.jpg", "nama": "Episod 06" },
        { "komiktype": "manhua", "sub": "120", "id": "7", "image": "https://masterku.github.io/svckofmi/kofmi07.jpg", "nama": "Episod 07" },
        { "komiktype": "manhua", "sub": "120", "id": "8", "image": "https://masterku.github.io/svckofmi/kofmi08.jpg", "nama": "Episod 08" }
    ]
}