{
    "aaData": [
        { "komiktype": "manhua", "sub": "83", "id": "1", "image": "https://masterku.github.io/lrp/lrp2s/lrp200.jpg", "nama": "Episod 00 Prolog 1" },
        { "komiktype": "manhua", "sub": "83", "id": "2", "image": "https://masterku.github.io/lrp/lrp2s/lrp200.jpg", "nama": "Episod 00 Prolog 2" },
        { "komiktype": "manhua", "sub": "83", "id": "3", "image": "https://masterku.github.io/lrp/lrp2s/lrp200.jpg", "nama": "Episod 01" },
        { "komiktype": "manhua", "sub": "83", "id": "4", "image": "https://masterku.github.io/lrp/lrp2s/lrp200.jpg", "nama": "Episod 02" },
        { "komiktype": "manhua", "sub": "83", "id": "5", "image": "https://masterku.github.io/lrp/lrp2s/lrp203.jpg", "nama": "Episod 03" },
        { "komiktype": "manhua", "sub": "83", "id": "6", "image": "https://masterku.github.io/lrp/lrp2s/lrp204.jpg", "nama": "Episod 04" },
        { "komiktype": "manhua", "sub": "83", "id": "7", "image": "https://masterku.github.io/lrp/lrp2s/lrp205.jpg", "nama": "Episod 05" }
    ]
}