{
    "aaData": [
        { "komiktype": "manhua", "sub": "161", "id": "1", "image": "https://masterku.github.io/feel100/feel01.jpg", "nama": "Episode 01" },
		{ "komiktype": "manhua", "sub": "161", "id": "2", "image": "https://masterku.github.io/feel100/feel01.jpg", "nama": "Episode 02" },
		{ "komiktype": "manhua", "sub": "161", "id": "3", "image": "https://masterku.github.io/feel100/feel01.jpg", "nama": "Episode 03" },
		{ "komiktype": "manhua", "sub": "161", "id": "4", "image": "https://masterku.github.io/feel100/feel01.jpg", "nama": "Episode 04" },
		{ "komiktype": "manhua", "sub": "161", "id": "5", "image": "https://masterku.github.io/feel100/feel02.jpg", "nama": "Episode 05" },
		{ "komiktype": "manhua", "sub": "161", "id": "6", "image": "https://masterku.github.io/feel100/feel02.jpg", "nama": "Episode 06" },
		{ "komiktype": "manhua", "sub": "161", "id": "7", "image": "https://masterku.github.io/feel100/feel02.jpg", "nama": "Episode 07" },
		{ "komiktype": "manhua", "sub": "161", "id": "8", "image": "https://masterku.github.io/feel100/feel02.jpg", "nama": "Episode 08" },
		{ "komiktype": "manhua", "sub": "161", "id": "9", "image": "https://masterku.github.io/feel100/feel03.jpg", "nama": "Episode 09" },
		{ "komiktype": "manhua", "sub": "161", "id": "10", "image": "https://masterku.github.io/feel100/feel03.jpg", "nama": "Episode 10" },
		{ "komiktype": "manhua", "sub": "161", "id": "11", "image": "https://masterku.github.io/feel100/feel03.jpg", "nama": "Episode 11" },
		{ "komiktype": "manhua", "sub": "161", "id": "12", "image": "https://masterku.github.io/feel100/feel04.jpg", "nama": "Episode 12" },
		{ "komiktype": "manhua", "sub": "161", "id": "13", "image": "https://masterku.github.io/feel100/feel04.jpg", "nama": "Episode 13" },
		{ "komiktype": "manhua", "sub": "161", "id": "14", "image": "https://masterku.github.io/feel100/feel04.jpg", "nama": "Episode 14" },
		{ "komiktype": "manhua", "sub": "161", "id": "15", "image": "https://masterku.github.io/feel100/feel05.jpg", "nama": "Episode 15" },
		{ "komiktype": "manhua", "sub": "161", "id": "16", "image": "https://masterku.github.io/feel100/feel05.jpg", "nama": "Episode 16" },
		{ "komiktype": "manhua", "sub": "161", "id": "17", "image": "https://masterku.github.io/feel100/feel05.jpg", "nama": "Episode 17" },
		{ "komiktype": "manhua", "sub": "161", "id": "18", "image": "https://masterku.github.io/feel100/feel05.jpg", "nama": "Episode 18" },
		{ "komiktype": "manhua", "sub": "161", "id": "19", "image": "https://masterku.github.io/feel100/feel06.jpg", "nama": "Episode 19" },
		{ "komiktype": "manhua", "sub": "161", "id": "20", "image": "https://masterku.github.io/feel100/feel06.jpg", "nama": "Episode 20" },
		{ "komiktype": "manhua", "sub": "161", "id": "21", "image": "https://masterku.github.io/feel100/feel06.jpg", "nama": "Episode 21" },
		{ "komiktype": "manhua", "sub": "161", "id": "22", "image": "https://masterku.github.io/feel100/feel06.jpg", "nama": "Episode 22" },
		{ "komiktype": "manhua", "sub": "161", "id": "23", "image": "https://masterku.github.io/feel100/feel07.jpg", "nama": "Episode 23" },
		{ "komiktype": "manhua", "sub": "161", "id": "24", "image": "https://masterku.github.io/feel100/feel07.jpg", "nama": "Episode 24" },
		{ "komiktype": "manhua", "sub": "161", "id": "25", "image": "https://masterku.github.io/feel100/feel07.jpg", "nama": "Episode 25" },
		{ "komiktype": "manhua", "sub": "161", "id": "26", "image": "https://masterku.github.io/feel100/feel07.jpg", "nama": "Episode 26" },
		{ "komiktype": "manhua", "sub": "161", "id": "27", "image": "https://masterku.github.io/feel100/feel08.jpg", "nama": "Episode 27" },
		{ "komiktype": "manhua", "sub": "161", "id": "28", "image": "https://masterku.github.io/feel100/feel08.jpg", "nama": "Episode 28" },
		{ "komiktype": "manhua", "sub": "161", "id": "29", "image": "https://masterku.github.io/feel100/feel08.jpg", "nama": "Episode 29" },
		{ "komiktype": "manhua", "sub": "161", "id": "30", "image": "https://masterku.github.io/feel100/feel08.jpg", "nama": "Episode 30" },
		{ "komiktype": "manhua", "sub": "161", "id": "31", "image": "https://masterku.github.io/feel100/feel09.jpg", "nama": "Episode 31" },
		{ "komiktype": "manhua", "sub": "161", "id": "32", "image": "https://masterku.github.io/feel100/feel09.jpg", "nama": "Episode 32" },
		{ "komiktype": "manhua", "sub": "161", "id": "33", "image": "https://masterku.github.io/feel100/feel09.jpg", "nama": "Episode 33" },
		{ "komiktype": "manhua", "sub": "161", "id": "34", "image": "https://masterku.github.io/feel100/feel09.jpg", "nama": "Episode 34" },
		{ "komiktype": "manhua", "sub": "161", "id": "35", "image": "https://masterku.github.io/feel100/feel10.jpg", "nama": "Episode 35" },
		{ "komiktype": "manhua", "sub": "161", "id": "36", "image": "https://masterku.github.io/feel100/feel10.jpg", "nama": "Episode 36" },
		{ "komiktype": "manhua", "sub": "161", "id": "37", "image": "https://masterku.github.io/feel100/feel10.jpg", "nama": "Episode 37" },
		{ "komiktype": "manhua", "sub": "161", "id": "38", "image": "https://masterku.github.io/feel100/feel11.jpg", "nama": "Episode 38" },
		{ "komiktype": "manhua", "sub": "161", "id": "39", "image": "https://masterku.github.io/feel100/feel11.jpg", "nama": "Episode 39" },
		{ "komiktype": "manhua", "sub": "161", "id": "40", "image": "https://masterku.github.io/feel100/feel11.jpg", "nama": "Episode 40" },
		{ "komiktype": "manhua", "sub": "161", "id": "41", "image": "https://masterku.github.io/feel100/feel12.jpg", "nama": "Episode 41" },
		{ "komiktype": "manhua", "sub": "161", "id": "42", "image": "https://masterku.github.io/feel100/feel12.jpg", "nama": "Episode 42" },
		{ "komiktype": "manhua", "sub": "161", "id": "43", "image": "https://masterku.github.io/feel100/feel12.jpg", "nama": "Episode 43" },
		{ "komiktype": "manhua", "sub": "161", "id": "44", "image": "https://masterku.github.io/feel100/feel12.jpg", "nama": "Episode 44" },
		{ "komiktype": "manhua", "sub": "161", "id": "45", "image": "https://masterku.github.io/feel100/feel13.jpg", "nama": "Episode 45" },
		{ "komiktype": "manhua", "sub": "161", "id": "46", "image": "https://masterku.github.io/feel100/feel13.jpg", "nama": "Episode 46" },
		{ "komiktype": "manhua", "sub": "161", "id": "47", "image": "https://masterku.github.io/feel100/feel13.jpg", "nama": "Episode 47" },
		{ "komiktype": "manhua", "sub": "161", "id": "48", "image": "https://masterku.github.io/feel100/feel13.jpg", "nama": "Episode 48" },
		{ "komiktype": "manhua", "sub": "161", "id": "49", "image": "https://masterku.github.io/feel100/feel14.jpg", "nama": "Episode 49" },
		{ "komiktype": "manhua", "sub": "161", "id": "50", "image": "https://masterku.github.io/feel100/feel14.jpg", "nama": "Episode 50" },
		{ "komiktype": "manhua", "sub": "161", "id": "51", "image": "https://masterku.github.io/feel100/feel14.jpg", "nama": "Episode 51" },
		{ "komiktype": "manhua", "sub": "161", "id": "52", "image": "https://masterku.github.io/feel100/feel14.jpg", "nama": "Episode 52" },
		{ "komiktype": "manhua", "sub": "161", "id": "53", "image": "https://masterku.github.io/feel100/feel15.jpg", "nama": "Episode 53" },
		{ "komiktype": "manhua", "sub": "161", "id": "54", "image": "https://masterku.github.io/feel100/feel15.jpg", "nama": "Episode 54" },
		{ "komiktype": "manhua", "sub": "161", "id": "55", "image": "https://masterku.github.io/feel100/feel15.jpg", "nama": "Episode 55" },
		{ "komiktype": "manhua", "sub": "161", "id": "56", "image": "https://masterku.github.io/feel100/feel15.jpg", "nama": "Episode 56" },
		{ "komiktype": "manhua", "sub": "161", "id": "57", "image": "https://masterku.github.io/feel100/feel15.jpg", "nama": "Episode 57" },
		{ "komiktype": "manhua", "sub": "161", "id": "58", "image": "https://masterku.github.io/feel100/feel16.jpg", "nama": "Episode 58" },
		{ "komiktype": "manhua", "sub": "161", "id": "59", "image": "https://masterku.github.io/feel100/feel16.jpg", "nama": "Episode 59" },
		{ "komiktype": "manhua", "sub": "161", "id": "60", "image": "https://masterku.github.io/feel100/feel16.jpg", "nama": "Episode 60" },
		{ "komiktype": "manhua", "sub": "161", "id": "61", "image": "https://masterku.github.io/feel100/feel16.jpg", "nama": "Episode 61" },
		{ "komiktype": "manhua", "sub": "161", "id": "62", "image": "https://masterku.github.io/feel100/feel16.jpg", "nama": "Episode 62" }
    ]
}