{
    "aaData": [
        { "komiktype": "manhua", "sub": "103", "id": "1", "image": "https://masterku.github.io/pg1/pg101.jpg", "nama": "Episod 01" },
        { "komiktype": "manhua", "sub": "103", "id": "2", "image": "https://masterku.github.io/pg1/pg101.jpg", "nama": "Episod 02" },
        { "komiktype": "manhua", "sub": "103", "id": "3", "image": "https://masterku.github.io/pg1/pg101.jpg", "nama": "Episod 03" },
        { "komiktype": "manhua", "sub": "103", "id": "4", "image": "https://masterku.github.io/pg1/pg101.jpg", "nama": "Episod 04" },
        { "komiktype": "manhua", "sub": "103", "id": "5", "image": "https://masterku.github.io/pg1/pg102.jpg", "nama": "Episod 05" },
        { "komiktype": "manhua", "sub": "103", "id": "6", "image": "https://masterku.github.io/pg1/pg102.jpg", "nama": "Episod 06" },
        { "komiktype": "manhua", "sub": "103", "id": "7", "image": "https://masterku.github.io/pg1/pg102.jpg", "nama": "Episod 07" },
        { "komiktype": "manhua", "sub": "103", "id": "8", "image": "https://masterku.github.io/pg1/pg102.jpg", "nama": "Episod 08" },
        { "komiktype": "manhua", "sub": "103", "id": "9", "image": "https://masterku.github.io/pg1/pg103.jpg", "nama": "Episod 09" },
        { "komiktype": "manhua", "sub": "103", "id": "10", "image": "https://masterku.github.io/pg1/pg103.jpg", "nama": "Episod 10" },
        { "komiktype": "manhua", "sub": "103", "id": "11", "image": "https://masterku.github.io/pg1/pg103.jpg", "nama": "Episod 11" },
        { "komiktype": "manhua", "sub": "103", "id": "12", "image": "https://masterku.github.io/pg1/pg103.jpg", "nama": "Episod 12" },
        { "komiktype": "manhua", "sub": "103", "id": "13", "image": "https://masterku.github.io/pg1/pg104.jpg", "nama": "Episod 13" },
        { "komiktype": "manhua", "sub": "103", "id": "14", "image": "https://masterku.github.io/pg1/pg104.jpg", "nama": "Episod 14" },
        { "komiktype": "manhua", "sub": "103", "id": "15", "image": "https://masterku.github.io/pg1/pg104.jpg", "nama": "Episod 15" },
        { "komiktype": "manhua", "sub": "103", "id": "16", "image": "https://masterku.github.io/pg1/pg104.jpg", "nama": "Episod 16" },
        { "komiktype": "manhua", "sub": "103", "id": "17", "image": "https://masterku.github.io/pg1/pg105.jpg", "nama": "Episod 17" },
        { "komiktype": "manhua", "sub": "103", "id": "18", "image": "https://masterku.github.io/pg1/pg105.jpg", "nama": "Episod 18" },
        { "komiktype": "manhua", "sub": "103", "id": "19", "image": "https://masterku.github.io/pg1/pg105.jpg", "nama": "Episod 19" },
        { "komiktype": "manhua", "sub": "103", "id": "20", "image": "https://masterku.github.io/pg1/pg105.jpg", "nama": "Episod 20" },
        { "komiktype": "manhua", "sub": "103", "id": "21", "image": "https://masterku.github.io/pg1/pg106.jpg", "nama": "Episod 21" },
        { "komiktype": "manhua", "sub": "103", "id": "22", "image": "https://masterku.github.io/pg1/pg106.jpg", "nama": "Episod 22" },
        { "komiktype": "manhua", "sub": "103", "id": "23", "image": "https://masterku.github.io/pg1/pg106.jpg", "nama": "Episod 23" },
        { "komiktype": "manhua", "sub": "103", "id": "24", "image": "https://masterku.github.io/pg1/pg106.jpg", "nama": "Episod 24" },
        { "komiktype": "manhua", "sub": "103", "id": "25", "image": "https://masterku.github.io/pg1/pg107.jpg", "nama": "Episod 25" },
        { "komiktype": "manhua", "sub": "103", "id": "26", "image": "https://masterku.github.io/pg1/pg107.jpg", "nama": "Episod 26" },
        { "komiktype": "manhua", "sub": "103", "id": "27", "image": "https://masterku.github.io/pg1/pg107.jpg", "nama": "Episod 27" },
        { "komiktype": "manhua", "sub": "103", "id": "28", "image": "https://masterku.github.io/pg1/pg107.jpg", "nama": "Episod 28" },
        { "komiktype": "manhua", "sub": "103", "id": "29", "image": "https://masterku.github.io/pg1/pg108.jpg", "nama": "Episod 29" },
        { "komiktype": "manhua", "sub": "103", "id": "30", "image": "https://masterku.github.io/pg1/pg108.jpg", "nama": "Episod 30" },
        { "komiktype": "manhua", "sub": "103", "id": "31", "image": "https://masterku.github.io/pg1/pg108.jpg", "nama": "Episod 31" },
        { "komiktype": "manhua", "sub": "103", "id": "32", "image": "https://masterku.github.io/pg1/pg108.jpg", "nama": "Episod 32" },
        { "komiktype": "manhua", "sub": "103", "id": "33", "image": "https://masterku.github.io/pg1/pg109.jpg", "nama": "Episod 33" },
        { "komiktype": "manhua", "sub": "103", "id": "34", "image": "https://masterku.github.io/pg1/pg109.jpg", "nama": "Episod 34" },
        { "komiktype": "manhua", "sub": "103", "id": "35", "image": "https://masterku.github.io/pg1/pg109.jpg", "nama": "Episod 35" },
        { "komiktype": "manhua", "sub": "103", "id": "36", "image": "https://masterku.github.io/pg1/pg109.jpg", "nama": "Episod 36" },
        { "komiktype": "manhua", "sub": "103", "id": "37", "image": "https://masterku.github.io/pg1/pg110.jpg", "nama": "Episod 37" },
        { "komiktype": "manhua", "sub": "103", "id": "38", "image": "https://masterku.github.io/pg1/pg110.jpg", "nama": "Episod 38" },
        { "komiktype": "manhua", "sub": "103", "id": "39", "image": "https://masterku.github.io/pg1/pg110.jpg", "nama": "Episod 39" },
        { "komiktype": "manhua", "sub": "103", "id": "40", "image": "https://masterku.github.io/pg1/pg110.jpg", "nama": "Episod 40" },
        { "komiktype": "manhua", "sub": "103", "id": "41", "image": "https://masterku.github.io/pg1/pg111.jpg", "nama": "Episod 41" },
        { "komiktype": "manhua", "sub": "103", "id": "42", "image": "https://masterku.github.io/pg1/pg111.jpg", "nama": "Episod 42" },
        { "komiktype": "manhua", "sub": "103", "id": "43", "image": "https://masterku.github.io/pg1/pg111.jpg", "nama": "Episod 43" },
        { "komiktype": "manhua", "sub": "103", "id": "44", "image": "https://masterku.github.io/pg1/pg111.jpg", "nama": "Episod 44" },
        { "komiktype": "manhua", "sub": "103", "id": "45", "image": "https://masterku.github.io/pg1/pg112.jpg", "nama": "Episod 45" },
        { "komiktype": "manhua", "sub": "103", "id": "46", "image": "https://masterku.github.io/pg1/pg112.jpg", "nama": "Episod 46" },
        { "komiktype": "manhua", "sub": "103", "id": "47", "image": "https://masterku.github.io/pg1/pg112.jpg", "nama": "Episod 47" },
        { "komiktype": "manhua", "sub": "103", "id": "48", "image": "https://masterku.github.io/pg1/pg112.jpg", "nama": "Episod 48" }
    ]
}