{
    "aaData" : [{
            "id" : "1",
            "image" : "resources/images/ikim-fm.jpg",
            "background" : "https://cyclonmaster.bitbucket.io/pilakTV/ikim-fm.jpg",
            "address" : "https://50.7.96.210:8285/;stream.mp3:21",
            "channel" : "Ikim FM"
        }, {
            "id" : "2",
            "image" : "resources/images/Cats-FM.jpg",
            "background" : "https://cyclonmaster.bitbucket.io/pilakTV/Cats-FM.jpg",
            "address" : "https://199.189.111.28:8244/;stream.mp3?type=.mp3/;stream.mp3",
            "channel" : "Cats FM"
        }, {
            "id" : "3",
            "image" : "resources/images/sarawak.jpg",
            "background" : "https://cyclonmaster.bitbucket.io/pilakTV/sarawak.jpg",
            "address" : "https://124.82.221.149:8000/;stream.mp3",
            "channel" : "Sarawak FM"
        }, {
            "id" : "4",
            "image" : "resources/images/Hot-FM.png",
            "background" : "https://cyclonmaster.bitbucket.io/pilakTV/Hot-FM.png",
            "address" : "https://astro2.rastream.com/hotfm?type=.flv",
            "channel" : "Hot FM"
        }, {
            "id" : "5",
            "image" : "resources/images/Hitzfm.jpg",
            "background" : "https://cyclonmaster.bitbucket.io/pilakTV/Hitzfm.jpg",
            "address" : "https://astro1.rastream.com/hitz?type=.flv",
            "channel" : "Hits FM"
        }, {
            "id" : "6",
            "image" : "resources/images/era-fm.png",
            "background" : "https://cyclonmaster.bitbucket.io/pilakTV/era-fm.png",
            "address" : "https://astro2.rastream.com/era?type=.flv",
            "channel" : "Era FM"
        }, {
            "id" : "7",
            "image" : "https://cyclonmaster.bitbucket.io/pilakTV/suriafm.jpg",
            "background" : "https://cyclonmaster.bitbucket.io/pilakTV/suriafm.jpg",
            "address" : "https://starrfm.rastream.com/starrfm-suria?type=.flv",
            "channel" : "Suria FM"
        }, {
            "id" : "8",
            "image" : "https://cyclonmaster.bitbucket.io/pilakTV/thrgegar.jpg",
            "background" : "https://cyclonmaster.bitbucket.io/pilakTV/thrgegar.jpg",
            "address" : "https://astro3.rastream.com/gegar?type=.flv",
            "channel" : "THR Gegar"
        }
    ]
}
