{
    "aaData": [
        { "komiktype": "manga", "sub": "4", "id": "1", "image": "https://masterku.github.io/dbardck/main4/dbafyj01.jpg", "nama": "Episod 01" },
        { "komiktype": "manga", "sub": "4", "id": "2", "image": "https://masterku.github.io/dbardck/main4/dbafyj02.jpg", "nama": "Episod 02" },
        { "komiktype": "manga", "sub": "4", "id": "3", "image": "https://masterku.github.io/dbardck/main4/dbafyj03.jpg", "nama": "Episod 03" },
        { "komiktype": "manga", "sub": "4", "id": "4", "image": "https://masterku.github.io/dbardck/main4/dbafyj04.jpg", "nama": "Episod 04" },
		{ "komiktype": "manga", "sub": "4", "id": "5", "image": "https://masterku.github.io/dbardck/main4/dbafyj05.jpg", "nama": "Episod 05" },
        { "komiktype": "manga", "sub": "4", "id": "6", "image": "https://masterku.github.io/dbardck/main4/dbafyj06.jpg", "nama": "Episod 06" },
        { "komiktype": "manga", "sub": "4", "id": "7", "image": "https://masterku.github.io/dbardck/main4/dbafyj07.jpg", "nama": "Episod 07" },
        { "komiktype": "manga", "sub": "4", "id": "8", "image": "https://masterku.github.io/dbardck/main4/dbafyj08.jpg", "nama": "Episod 08" },
		{ "komiktype": "manga", "sub": "4", "id": "9", "image": "https://masterku.github.io/dbardck/main4/dbafyj09.jpg", "nama": "Episod 09" },
        { "komiktype": "manga", "sub": "4", "id": "10", "image": "https://masterku.github.io/dbardck/main4/dbafyj10.jpg", "nama": "Episod 10" },
		{ "komiktype": "manga", "sub": "4", "id": "11", "image": "https://masterku.github.io/dbardck/main4/dbafyj11.jpg", "nama": "Episod 11" },
        { "komiktype": "manga", "sub": "4", "id": "12", "image": "https://masterku.github.io/dbardck/main4/dbafyj12.jpg", "nama": "Episod 12" },
        { "komiktype": "manga", "sub": "4", "id": "13", "image": "https://masterku.github.io/dbardck/main4/dbafyj13.jpg", "nama": "Episod 13" },
        { "komiktype": "manga", "sub": "4", "id": "14", "image": "https://masterku.github.io/dbardck/main4/dbafyj14.jpg", "nama": "Episod 14" },
		{ "komiktype": "manga", "sub": "4", "id": "15", "image": "https://masterku.github.io/dbardck/main4/dbafyj15.jpg", "nama": "Episod 15" },
        { "komiktype": "manga", "sub": "4", "id": "16", "image": "https://masterku.github.io/dbardck/main4/dbafyj16.jpg", "nama": "Episod 16" },
        { "komiktype": "manga", "sub": "4", "id": "17", "image": "https://masterku.github.io/dbardck/main4/dbafyj17.jpg", "nama": "Episod 17" },
        { "komiktype": "manga", "sub": "4", "id": "18", "image": "https://masterku.github.io/dbardck/main4/dbafyj18.jpg", "nama": "Episod 18" }
    ]
}