{
    "aaData": [
        { "komiktype": "manga", "sub": "2", "id": "1", "image": "https://masterku.github.io/dbardck/main2/dbba01.jpg", "nama": "Episod 01" },
        { "komiktype": "manga", "sub": "2", "id": "2", "image": "https://masterku.github.io/dbardck/main2/dbba02.jpg", "nama": "Episod 02" }
    ]
}